<?xml version="1.0" encoding="UTF-8" standalone="no"?>
<!-- Created with Inkscape (http://www.inkscape.org/) -->

<svg
   xmlns:dc="http://purl.org/dc/elements/1.1/"
   xmlns:cc="http://creativecommons.org/ns#"
   xmlns:rdf="http://www.w3.org/1999/02/22-rdf-syntax-ns#"
   xmlns:svg="http://www.w3.org/2000/svg"
   xmlns="http://www.w3.org/2000/svg"
   xmlns:sodipodi="http://sodipodi.sourceforge.net/DTD/sodipodi-0.dtd"
   xmlns:inkscape="http://www.inkscape.org/namespaces/inkscape"
   width="640mm"
   height="640mm"
   viewBox="0 0 640 640"
   version="1.1"
   id="svg8"
   inkscape:version="0.92.3 (2405546, 2018-03-11)"
   sodipodi:docname="футболка зад2.svg">
  <defs
     id="defs2" />
  <sodipodi:namedview
     id="base"
     pagecolor="#ffffff"
     bordercolor="#666666"
     borderopacity="1.0"
     inkscape:pageopacity="0.0"
     inkscape:pageshadow="2"
     inkscape:zoom="0.26917126"
     inkscape:cx="1442.3567"
     inkscape:cy="998.43576"
     inkscape:document-units="mm"
     inkscape:current-layer="layer5"
     showgrid="false"
     showguides="false"
     objecttolerance="1"
     inkscape:window-width="1920"
     inkscape:window-height="1017"
     inkscape:window-x="-8"
     inkscape:window-y="-8"
     inkscape:window-maximized="1" />
  <metadata
     id="metadata5">
    <rdf:RDF>
      <cc:Work
         rdf:about="">
        <dc:format>image/svg+xml</dc:format>
        <dc:type
           rdf:resource="http://purl.org/dc/dcmitype/StillImage" />
        <dc:title></dc:title>
      </cc:Work>
    </rdf:RDF>
  </metadata>
  <g
     inkscape:label="Layer 1"
     inkscape:groupmode="layer"
     id="layer1"
     transform="translate(0,343)"
     style="display:inline">
    <rect
       style="opacity:1;fill:#ecdff7;fill-opacity:0;fill-rule:evenodd;stroke:#34ff9c;stroke-width:0;stroke-linecap:butt;stroke-linejoin:miter;stroke-miterlimit:12.69999981;stroke-dasharray:none;stroke-opacity:0.98989898"
       id="rect914"
       width="640"
       height="640"
       x="-0.2107476"
       y="-344.11902"
       inkscape:export-xdpi="25.4"
       inkscape:export-ydpi="25.4" />
    <g
       style="filter:url(#filter1104)"
       id="g873"
       transform="matrix(3.3804801,0,0,3.903671,-471.31807,-586.04422)"
       inkscape:export-xdpi="25.4"
       inkscape:export-ydpi="25.4">
      <path
         style="fill:#ebebeb;fill-opacity:1;stroke-width:0.26458332"
         d="m 222.88052,225.27544 c -16.02767,-0.51227 -24.11498,-1.8615 -28.35573,-5.63718 -1.52613,-1.35876 -1.24034,-1.99192 -0.63287,-4.15693 0.28119,-1.00218 -0.007,-2.61546 -0.0185,-4.52708 -0.0103,-1.71264 -0.17022,-5.15461 0.072,-6.24843 0.29621,-1.33758 0.25825,-2.97956 0.14127,-4.79921 -0.1584,-2.46382 -1.31338,-2.80351 -0.23612,-5.90232 0.60591,-1.74293 -0.1134,-4.35268 0.0999,-5.66881 0.44252,-2.7308 -0.0684,-3.60213 1.66201,-9.18735 1.3958,-4.50528 2.32205,-9.52723 2.36678,-12.83229 0.0277,-2.04657 -0.0626,-2.47516 -1.00391,-4.7625 -1.29849,-3.15543 -1.42605,-4.36205 -0.72869,-6.89265 0.29872,-1.08399 0.53495,-2.32808 0.52496,-2.76464 -0.0375,-1.63724 -1.68021,-14.00265 -2.49564,-18.78542 l -0.40599,-2.38125 -3.75098,-0.0189 c -4.43211,-0.0223 -7.5502,-0.60087 -11.27893,-2.09271 -4.44733,-1.77934 -7.23143,-3.69899 -7.56458,-5.21581 -0.12683,-0.57746 -0.35884,-0.80318 -0.94635,-0.92068 -0.96695,-0.19339 -1.82049,-1.23864 -1.82049,-2.22939 0,-0.41185 0.17048,-1.25899 0.37884,-1.88254 0.20836,-0.62355 0.75255,-2.56248 1.20931,-4.30873 2.52804,-9.66498 5.35516,-18.881987 7.64881,-24.93668 2.09927,-5.541608 4.53831,-10.998343 5.26236,-11.773194 1.50472,-1.610312 4.84,-3.266567 12.62047,-6.267155 2.18281,-0.841815 5.3484,-2.14269 7.03464,-2.890833 1.68625,-0.748143 3.24155,-1.36026 3.45623,-1.36026 0.21468,0 0.73479,-0.359533 1.15579,-0.798963 0.421,-0.43943 1.66367,-1.227615 2.76148,-1.751523 l 1.99603,-0.952561 2.38125,0.422803 c 1.30968,0.232541 3.81,0.607869 5.55625,0.834063 1.74625,0.226194 3.82984,0.535316 4.6302,0.686939 4.25058,0.805235 21.32174,-0.153501 31.38439,-1.762583 0.89631,-0.143327 1.22173,-0.03596 2.48445,0.819718 0.79917,0.541556 1.71067,1.218133 2.02556,1.503504 0.31489,0.285372 4.18442,1.977754 8.59896,3.760849 16.24811,6.562843 15.75208,6.242123 17.98887,11.630992 4.148,9.993302 6.167,16.02732 9.88003,29.527594 0.82047,2.98318 1.65853,5.95974 1.86234,6.61458 1.08678,3.49176 0.97249,4.32011 -0.65657,4.75877 -0.85669,0.23068 -1.17985,0.50042 -1.61022,1.34401 -1.86201,3.64984 -12.16935,7.54059 -19.4999,7.36071 -1.48925,-0.0366 -2.76705,-0.007 -2.83955,0.0654 -0.17373,0.17373 2.21919,-0.30413 1.70846,3.61941 -0.22294,1.7127 0.35895,5.55544 0.22332,6.50133 -0.82625,5.76195 -1.03886,5.4322 -0.45495,7.32269 0.69048,2.23552 1.21631,4.18663 0.52817,6.05525 -0.29489,0.80036 0.55933,4.92527 0.18661,6.01668 l -0.5026,2.89393 -0.43981,3.11787 c 0.41175,3.52151 -0.62301,2.88296 0.18855,4.9378 0.96143,2.43431 -0.14051,9.28645 0.494,12.78568 0.38262,2.11006 -0.23866,8.58794 0.33105,10.31911 0.93907,2.85353 1.03629,3.40967 1.04071,5.95313 0.003,1.54305 0.18668,3.81757 0.40889,5.0545 0.27219,1.51515 0.34952,2.9396 0.23699,4.36563 -0.12214,1.54792 -0.0608,2.43658 0.22845,3.30729 0.69944,2.1058 0.76673,2.82369 0.34172,3.64558 -1.28124,2.47764 -6.71115,5.08216 -12.77215,6.12631 -0.85011,0.14645 -2.61721,0.45497 -3.9269,0.68561 -8.28221,1.45846 -24.35118,2.14411 -39.15833,1.67085 z"
         id="path889"
         inkscape:connector-curvature="0"
         sodipodi:nodetypes="cccccccccccccccccccsssccscssccssccscscccccccccsccccscscsccccccc" />
    </g>
  </g>
  <g
     inkscape:groupmode="layer"
     id="layer2"
     inkscape:label="Layer 2"
     style="display:inline">
    <path
       style="fill:#e4e4e4;fill-opacity:1;stroke-width:0.96114349;filter:url(#filter1104)"
       d="m 274.85008,635.28053 c -17.23367,-0.9601 -36.08158,-2.83988 -41.59046,-4.14803 -2.21368,-0.52565 -6.23858,-1.24799 -8.94419,-1.60519 -2.70563,-0.35722 -6.32802,-1.06394 -8.04976,-1.57049 -1.72174,-0.50654 -6.55161,-1.8925 -10.73303,-3.07992 -14.38253,-4.08429 -7.55395,-1.26881 -15.619,-7.24994 -8.51491,-6.31476 -9.57885,-13.00489 -6.59558,-24.55842 1.05089,-4.06999 0.93858,-13.5024 0.54574,-18.92256 -0.37459,-5.1685 -0.73959,-11.4746 0.43619,-19.5249 1.29742,-8.87956 -0.3002,-18.82418 -0.92399,-23.15895 -0.97785,-6.79384 -2.1129,-25.38275 1.53954,-36.47145 2.44142,-7.41205 -3.46553,3.00251 -2.19144,-7.83408 0.32589,-2.77231 0.9342,-6.02581 1.35169,-7.22993 0.78592,-2.26685 -0.59546,-26.45443 3.50194,-42.60302 3.74886,-14.77461 0.19529,-34.7023 -0.84914,-42.12501 -0.36311,-2.58056 1.97022,-6.1692 0.0708,-11.55481 -3.86413,-10.95637 -2.18729,-23.30138 0.18103,-31.18336 1.65175,-5.49711 1.87107,-12.45122 0.57641,-23.72852 -3.38704,-29.50398 -0.66337,-46.36711 -1.91648,-54.96423 l -1.12656,-7.72884 -10.28581,0.30683 c -18.32383,0.54671 -36.18506,-4.26722 -51.87628,-13.98162 -8.85546,-5.48243 -12.99419,-9.64063 -14.36322,-14.43082 -0.62431,-2.18442 -1.5616,-3.43121 -2.57948,-3.43121 -0.87935,0 -2.65934,-0.96332 -3.95553,-2.14067 -2.932457,-2.66369 -3.130318,-7.77529 -0.65402,-16.89419 0.93647,-3.44845 2.13884,-8.12903 2.6719,-10.40129 11.10619,-47.33891 12.64084,-53.42235 19.28659,-76.45366 8.4507,-29.286368 20.84346,-64.330046 24.38793,-68.962886 4.45507,-5.823059 18.49491,-13.941951 42.24688,-24.430264 6.29276,-2.778742 16.51796,-7.64643 22.72267,-10.817114 6.20471,-3.170667 11.85761,-5.764827 12.56204,-5.764827 0.70442,0 3.40261,-2.091545 5.99601,-4.647824 2.5934,-2.556279 5.11534,-4.647789 5.60438,-4.647789 0.48898,0 2.69653,-1.0104132 4.90568,-2.2453478 3.7788,-2.1124 4.41774,-2.1690787 10.79181,-0.9576155 3.72636,0.7082562 9.59262,1.7182476 13.03613,2.2444535 14.21806,2.1726388 18.08208,2.9014478 21.91325,4.1332598 10.43842,3.356092 62.3987,-0.03122 107.14912,-6.9884058 3.34596,-0.5200808 4.38847,-0.1569253 8.04977,2.804255 2.3133,1.8709378 5.21224,4.4410358 6.44204,5.7113038 1.22982,1.270285 8.27339,5.105522 15.65234,8.522798 54.80847,25.382447 60.47293,28.367318 66.04585,34.80279 3.79981,4.3878 4.21534,5.366609 14.03221,33.050947 4.83943,13.647506 14.58454,46.043016 18.64187,61.970776 2.64751,10.39333 5.4732,21.92208 6.83505,27.88684 0.64848,2.84035 3.06881,12.83313 5.37848,22.2062 7.00151,28.41348 7.01263,28.92749 0.66369,30.65486 -2.65725,0.72296 -3.70226,1.72245 -4.92749,4.71301 -2.44817,5.97571 -14.83239,15.72575 -25.72478,20.253 -14.12275,5.86995 -27.3786,8.80644 -39.5964,8.77167 l -1.05946,-1.21475 -0.48267,2.67733 c -0.26536,1.4725 -0.68082,3.60683 -0.92294,4.74296 -0.60849,2.85518 2.40601,14.48999 1.37864,24.47589 -0.46755,4.54453 -0.67522,18.7445 -1.18481,22.1529 -0.50957,3.40838 -0.92415,0.56909 -1.64464,7.43277 l -0.71817,3.60277 -1.21857,4.47621 c -2.85609,10.49139 8.51543,27.19828 2.95383,44.29593 -3.16863,9.74099 -3.77953,17.59108 -3.23277,29.38282 0.69455,14.97937 -5.56148,30.56468 -1.20437,44.48773 3.79617,12.13075 -3.00997,24.07615 -1.35518,35.19216 2.25359,15.13879 2.89896,18.16942 6.21275,29.17593 2.4162,8.02521 -2.07924,11.04914 -2.07924,21.54074 0,6.63148 0.45667,13.08772 1.04119,14.71998 0.59763,1.66898 1.10887,9.28764 1.20004,17.88388 0.11525,10.87726 0.56478,16.32894 1.64206,19.9184 2.33621,7.7843 1.97055,10.5026 -2.09839,15.60007 -6.44192,8.07025 -18.41439,15.4548 -36.33973,19.1197 -34.86335,7.12788 -51.6631,8.69067 -98.38607,9.15235 -21.39894,0.21157 -45.347,0.0272 -53.21789,-0.41279 z m 44.49733,-23.48563 c -1.10686,-0.2463 -2.91805,-0.2463 -4.02489,0 -1.10683,0.24631 -0.20114,0.44761 2.01244,0.44761 2.21371,0 3.1193,-0.20144 2.01245,-0.44761 z m -24.37291,-1.36479 c -5.36676,-0.84009 -43.89134,-2.19814 -40.24884,-1.41886 5.56056,1.18965 20.33241,2.19537 32.19906,2.19225 9.50801,0 11.65628,-0.20887 8.04978,-0.77339 z m 98.31566,-1.97375 c 9.06198,-1.17654 16.67572,-2.3694 16.91939,-2.65081 0.88731,-1.0246 -11.36341,-0.47524 -21.35824,0.95777 -5.63679,0.80812 -15.07853,1.77285 -20.9817,2.14377 -5.90316,0.37087 -13.14793,1.07907 -16.09952,1.57372 -11.16198,1.87069 25.15986,0.0996 41.52007,-2.02445 z m -149.74473,-1.66553 c -6.43968,-1.40913 -13.64606,-1.93439 -12.77747,-0.93138 0.64665,0.74673 10.92757,2.26698 15.46072,2.28618 2.79368,0.0118 2.20565,-0.28498 -2.68325,-1.3548 z m 9.34881,-87.38377 c -0.64617,21.54579 -0.77549,22.70798 -3.52383,31.66243 -4.97215,16.2 -3.88177,21.33257 5.35849,25.22316 4.93115,2.07625 8.1209,2.4294 29.8155,3.30064 13.36148,0.53659 27.71473,1.36284 31.89615,1.83608 10.74292,1.21585 22.75844,1.30876 25.29389,0.19558 v -5e-5 c 2.88478,-1.26649 5.11632,-3.95826 5.11632,-6.1714 0,-2.90661 -5.76054,-9.85492 -11.36834,-13.71257 -6.55586,-4.50973 -18.05083,-9.06949 -27.98606,-11.1015 -21.19827,-4.33548 -25.09779,-14.4234 -32.19907,-17.40226 -15.28339,-6.8431 -17.6077,-9.9836 -22.40305,-13.83011 z m 96.85719,-6.33497 c 10.22242,13.49509 2.29869,15.01306 13.53463,34.59617 8.7979,15.33376 13.4489,21.05006 20.68309,25.42045 4.53139,2.73748 13.9391,3.00188 19.4355,0.54621 6.97663,-3.117 10.52753,-8.46865 10.52753,-15.86619 0,-3.00719 -1.3526,-7.47249 -4.63025,-15.28575 -4.67453,-11.14317 -22.88657,-27.77172 -57.57723,-30.49671 z M 259.53928,179.03804 c 104.84086,28.42176 166.15243,-11.14239 158.97593,-35.35547 h -2e-5 c 2.80032,-9.22047 6.01813,-13.20867 11.34428,-14.06022 6.48911,-1.03742 11.79977,-4.28395 11.79977,-7.21343 0,-2.20986 -3.44159,-7.59751 -8.75633,-13.70763 -1.12647,-1.29503 -2.44009,-3.54511 -2.91913,-5.00009 -0.47906,-1.45497 -2.25905,-5.060254 -3.95555,-8.011699 -4.35574,-7.577837 -7.18743,-8.884435 -19.25413,-8.884435 -11.16663,0 -13.38623,-0.913457 -21.39008,-8.802817 -8.12716,-8.010884 -11.05164,-9.455525 -22.88085,-11.30289 -5.90316,-0.921894 -15.34694,-2.642554 -20.98616,-3.823645 -7.4404,-1.558352 -11.94919,-1.965464 -16.43555,-1.483939 -7.30867,0.784356 -7.74644,1.025093 -7.74644,4.259256 0,2.494319 -5.74655,9.640191 -8.80013,10.943008 -3.15033,1.344074 -19.91731,2.077218 -24.49138,1.070889 -5.25921,-1.157097 -17.13565,-3.454669 -30.65662,-5.930764 -4.91775,-0.900582 -9.53941,-2.023864 -10.27034,-2.496243 -0.73094,-0.472345 -4.95832,-0.611165 -9.39422,-0.3084 -6.54512,0.446663 -8.67188,1.021162 -11.28405,3.048147 -1.80545,1.401022 -5.65651,2.95109 -8.77055,3.530212 -3.05345,0.567816 -7.33838,1.732911 -9.52206,2.589031 -2.88683,1.131786 -4.44372,1.264041 -5.70494,0.484561 -2.63849,-1.630605 -4.27724,-1.290988 -4.79463,0.993675 -0.3918,1.730144 -1.21998,2.065711 -5.09814,2.065711 -2.54672,0 -4.4962,0.412072 -4.33222,0.915684 0.16401,0.503612 2.07126,2.478947 4.23838,4.389605 2.16712,1.910642 4.37877,4.287284 4.91472,5.28138 1.58479,2.939515 -0.40654,5.372751 -4.69755,5.74004 -2.04064,0.174879 -3.71022,0.718313 -3.71022,1.208072 0,0.489759 2.01807,1.664491 4.48465,2.610551 4.40402,1.68915 12.84798,8.29654 16.69953,13.0673 1.21771,1.50829 2.18737,4.45752 2.57285,7.82526 0.82936,7.24549 -0.77666,8.02295 -7.60326,3.68045 -2.73546,-1.74006 -6.68409,-3.49113 -8.77483,-3.89134 -3.65804,-0.70016 -3.80123,-0.62649 -3.80123,1.95488 0,2.10307 0.95623,3.3619 4.42743,5.82831 5.28312,3.75384 6.53741,6.8591 3.70968,9.1841 -7.08599,2.74764 -6.73299,4.45122 -1.85834,5.52018 12.58693,2.76017 38.29905,23.11155 64.72173,34.08271 z m -91.07235,76.63671 c 1.70877,-1.52548 1.70509,-1.58049 -0.23292,-3.48164 -1.0829,-1.06242 -5.71152,-2.97067 -10.28578,-4.24056 -9.40927,-2.61215 -22.91026,-7.60084 -26.70836,-9.86887 -1.39621,-0.83376 -2.961,-1.51591 -3.47736,-1.51591 -1.8826,0 -0.86829,3.37873 1.91588,6.38206 5.27821,5.69366 11.6317,8.4383 29.34436,12.6764 7.6634,1.83363 7.44567,1.8325 9.44405,0.0484 z m 317.70941,-1.48613 c 11.0752,-2.72684 17.70885,-5.96481 22.53471,-10.99945 3.5769,-3.73163 4.65584,-6.6214 2.47222,-6.6214 -0.62423,0 -3.94475,1.36155 -7.37893,3.02565 -3.4342,1.66414 -10.87265,4.47197 -16.52986,6.23971 -13.82176,4.31893 -17.88835,6.11377 -17.88835,7.89533 0,1.80591 3.33834,3.57432 5.81373,3.07968 0.98385,-0.19674 5.92327,-1.37539 10.97648,-2.61952 z M 151.2594,238.55095 c -0.5312,-0.61343 -5.13734,-2.73148 -10.23581,-4.70678 -5.09851,-1.9753 -11.45405,-4.95747 -14.12345,-6.62706 -2.6694,-1.66956 -5.00922,-2.85565 -5.19964,-2.6358 -0.52666,0.60819 4.09956,4.15568 9.59539,7.35799 9.35637,5.45179 22.82067,9.91098 19.96351,6.61165 z m 346.40717,-1.96823 c 4.1611,-1.69603 8.45562,-3.60002 9.54342,-4.23116 3.2386,-1.87907 10.47115,-7.61157 10.47304,-8.30093 8.9e-4,-0.35172 -3.38529,1.32356 -7.52496,3.72271 -4.13967,2.39911 -10.98195,5.66001 -15.20513,7.24642 -4.22313,1.58638 -7.67846,3.28083 -7.67846,3.76545 0,1.52593 2.59236,0.97649 10.39209,-2.20249 z m -338.34188,-5.65291 c -2.52647,-1.96477 -6.00565,-5.56683 -7.73153,-8.00455 -4.96707,-7.01591 -11.43109,-20.19035 -14.57674,-29.70905 -1.59058,-4.81318 -3.27893,-8.90018 -3.75181,-9.08221 -1.30592,-0.50267 -1.71032,4.94389 -0.95225,12.82463 1.08554,11.28488 0.88268,19.19999 -0.57479,22.42705 -0.73484,1.62708 -1.3361,3.1282 -1.3361,3.33573 0,2.00324 24.99619,11.65148 30.3983,11.73337 l 3.11853,0.0472 -4.59361,-3.57229 z m 326.68712,1.55498 c 3.46719,-1.10949 9.82953,-3.49042 14.13856,-5.29091 7.64922,-3.19617 7.81709,-3.33787 7.09438,-5.98729 -0.40712,-1.4925 -0.74024,-10.15013 -0.74024,-19.23918 0,-9.08903 -0.3641,-16.75792 -0.80907,-17.04193 -0.44498,-0.28419 -1.542,1.97353 -2.43779,5.01688 -2.17995,7.40581 -6.15262,16.45755 -11.64725,26.53836 -3.28766,6.03167 -5.98,9.53968 -9.8009,12.76999 -2.8974,2.44961 -5.26803,4.63323 -5.26803,4.85259 0,0.88944 3.50482,0.29043 9.47034,-1.61851 z m -364.10731,-0.0484 c -0.30391,-0.56805 -1.03216,-1.02571 -1.61803,-1.01701 -0.64006,0.008 -0.52972,0.41543 0.27652,1.01701 1.7183,1.28234 2.02792,1.28234 1.34165,0 z m 397.15864,-0.0687 c 0.97432,-1.82044 -0.0528,-2.0757 -1.89091,-0.46985 -1.51323,1.32197 -1.539,1.50974 -0.21128,1.53859 0.83188,0.0196 1.77776,-0.46286 2.10203,-1.06874 z m 13.82671,-9.16594 c 0,-3.28597 -1.42289,-5.02809 -2.80402,-3.43321 -0.94538,1.09171 0.76136,6.47078 2.05317,6.47078 0.41297,0 0.75085,-1.36692 0.75085,-3.03757 z m -423.50723,-2.19859 c 0,-0.79696 -0.67277,-1.59867 -1.49511,-1.78156 -1.12606,-0.25022 -1.37392,0.2026 -1.00413,1.83555 0.53245,2.35133 2.49924,2.30883 2.49924,-0.0538 z m 1.34165,-8.19084 c 0,-0.56806 -0.62749,-1.03288 -1.39441,-1.03288 -0.76693,0 -1.14567,0.46482 -0.84164,1.03288 0.30391,0.56807 0.93152,1.03283 1.39442,1.03283 0.46288,0 0.84163,-0.46476 0.84163,-1.03283 z m 419.92956,0 c 0.3039,-0.56806 -0.051,-1.03288 -0.78888,-1.03288 -0.73788,0 -1.59038,0.46482 -1.89439,1.03288 -0.30389,0.56807 0.0511,1.03283 0.78885,1.03283 0.73788,0 1.59037,-0.46476 1.89442,-1.03283 z M 488.4505,195.77035 c 8.17558,-16.93847 15.1482,-38.58139 14.74648,-45.77305 -0.14848,-2.66004 -0.67263,-4.7738 -1.16457,-4.69721 -0.49192,0.0764 -1.61076,2.8653 -2.4863,6.19713 -3.31541,12.6163 -17.91096,54.33678 -20.03374,57.26504 -0.65014,0.89684 -1.17608,2.05876 -1.16874,2.58208 0.027,1.98733 6.28293,-7.65146 10.10687,-15.57399 z m -329.42762,12.22429 c 0,-0.37748 -1.3883,-4.06372 -3.08506,-8.19165 -4.04123,-9.83167 -12.48343,-34.48347 -15.64456,-45.6833 -1.37683,-4.87798 -2.95824,-9.04421 -3.51427,-9.25825 -2.37595,-0.91452 -0.23969,15.72504 3.08829,24.05489 0.68087,1.70422 3.20663,8.28233 5.61283,14.61811 5.44379,14.33412 13.54277,28.96203 13.54277,24.4602 z m -46.08781,-3.70333 c 0.25083,-1.27814 0.90148,-5.34498 1.44591,-9.03738 0.54441,-3.69245 1.20318,-8.10786 1.46394,-9.81203 0.89336,-5.83892 -0.65527,-1.88431 -3.37861,8.62753 -1.49813,5.78271 -2.47922,10.97115 -2.18019,11.52987 0.9287,1.73524 2.17224,1.12119 2.64895,-1.30799 z m 415.82187,1.49293 c 0.4553,-0.8507 -4.36725,-22.75602 -5.2289,-23.75103 -1.0354,-1.19565 -0.0135,7.19519 2.71432,22.2581 0.42,2.32026 1.67348,3.06449 2.51458,1.49293 z M 483.21312,183.8926 c 4.57281,-10.33309 9.59244,-30.10097 10.3596,-40.79742 0.40745,-5.68066 1.37072,-12.86986 2.1406,-15.976 2.7634,-11.14904 1.20856,-29.985679 -2.47512,-29.985679 -1.87289,0 -2.29291,2.898289 -2.95974,20.423159 -0.46044,12.09948 -0.32791,16.36317 0.56872,18.29784 0.92608,1.99816 0.941,2.83981 0.0717,4.04928 -0.60351,0.83975 -1.66444,4.69002 -2.35765,8.55617 -0.69317,3.86617 -2.05739,10.05048 -3.03161,13.74288 -1.88519,7.14525 -6.22276,24.95854 -6.91623,28.40326 l -0.41586,2.06571 1.47935,-2.06571 c 0.81365,-1.13612 2.40496,-4.15717 3.53619,-6.71349 z m -322.40142,6.25864 c 0,-0.53422 -0.95647,-4.13625 -2.12548,-8.00456 -5.33153,-17.64225 -9.63504,-46.11988 -10.02197,-66.31829 -0.34274,-17.892241 -1.49032,-21.821212 -4.96058,-16.983711 -1.60827,2.241891 -1.63774,28.881601 -0.0432,39.086261 3.22261,20.62462 13.23898,53.1916 16.35973,53.1916 0.43534,0 0.79153,-0.43708 0.79153,-0.9713 z"
       id="path887"
       inkscape:connector-curvature="0"
       sodipodi:nodetypes="cccssccccscccccsscsccccscccsscsssscssssccscsscccccccccccccscscccsccccsccccssccccccccccccsccccsscccsccccccscssccccccscscscscssccscccccccsccccssccsssccsccccscccccssccsccscccsscccccsccccsccscccccccsccccscccccccscccsssssscsssccsscscscssccscssccccsscccccccccccccsccccccccccccsccsccc"
       inkscape:export-xdpi="25.4"
       inkscape:export-ydpi="25.4" />
  </g>
  <g
     inkscape:groupmode="layer"
     id="layer3"
     inkscape:label="Layer 3"
     style="display:inline">
    <path
       style="fill:#dedede;fill-opacity:1;stroke-width:0.96114349;filter:url(#filter1104)"
       d="m 281.96276,635.21082 c -55.16413,-2.12527 -79.9995,-5.44829 -93.43399,-20.31296 -4.72396,-5.22685 -6.98183,-6.25766 -4.64853,-15.33095 0.86224,-3.35265 -0.87406,-13.31772 -0.94155,-20.62735 -0.0641,-7.04198 0.80082,-11.59471 1.70373,-16.27572 1.0352,-5.36722 0.93599,-2.55375 0.56105,-9.0149 -0.57083,-9.83296 -4.45566,-39.07381 -0.32802,-52.52698 1.51036,-4.92246 -3.66311,-2.20342 -2.66402,-8.74715 0.99909,-6.54367 0.6977,-30.23658 2.91052,-38.33081 -1.05943,-24.64541 0.0586,-39.58409 0.12453,-54.85986 0.0304,-7.37085 2.13288,-6.11055 -1.28455,-15.98817 -2.58814,-10.46055 -0.52476,-15.1464 1.78947,-19.50194 -1.01482,-5.85107 -2.26291,-17.97287 -2.08022,-51.3139 -0.7124,-5.9647 0.16358,-18.28208 -0.61058,-24.81483 -0.774,-6.53277 -1.07305,-11.55127 -1.68742,-15.24367 l -0.28014,-6.7135 -5.13415,0.77212 c -15.6981,0.65465 -33.53899,-3.39782 -47.09794,-10.69804 -12.32432,-6.63551 -18.11168,-11.42242 -20.10696,-16.63128 -1.28392,-3.35168 -2.40755,-4.65462 -4.80053,-5.56659 -5.064398,-1.9301 -6.141209,-6.63398 -3.5448,-15.48512 0.74986,-2.55628 3.39184,-13.47863 5.87108,-24.27191 2.47925,-10.79322 4.88402,-21.01842 5.34399,-22.72259 0.45996,-1.70419 2.8765,-10.99981 5.37007,-20.65694 9.05258,-35.05876 25.91561,-85.42873 30.47724,-91.035923 4.55893,-5.60387 15.46338,-11.801423 40.57767,-23.062534 7.37904,-3.308677 17.24002,-7.97653 21.91336,-10.373032 4.67333,-2.396502 10.66113,-5.228261 13.30642,-6.292839 2.68004,-1.078532 6.53231,-3.769464 8.70058,-6.077379 2.14009,-2.277998 4.40926,-4.1417981 5.04236,-4.1417981 0.63327,0 2.75007,-0.9895743 4.70438,-2.1990971 3.29864,-2.0415474 3.97021,-2.1082153 9.37806,-0.9306007 3.20381,0.6976764 11.57603,2.1099027 18.60493,3.1383202 7.0289,1.0284677 13.26744,2.3179717 13.86342,2.8656407 1.8389,1.68963 15.5594,3.475052 21.90036,2.849882 3.30876,-0.326354 9.23581,-0.792827 13.17126,-1.036855 31.10783,-1.928915 56.82805,-4.7292212 72.56057,-7.8999727 6.35767,-1.2813034 8.13143,-0.5486648 14.64535,6.0488117 3.2902,3.332536 9.41214,6.572385 33.54067,17.750461 35.83161,16.59981 46.26934,22.288875 50.77967,27.677335 6.26858,7.48888 21.98406,53.52653 32.70863,95.81811 5.84572,23.05184 15.80424,64.09751 17.26145,71.14531 0.6714,3.24719 0.54148,4.37722 -0.68237,5.93884 -0.8312,1.06075 -2.28048,1.92862 -3.22035,1.92862 -2.45967,0 -5.16908,1.89508 -5.16908,3.61533 0,2.5212 -5.54706,8.92592 -11.62749,13.42555 -7.39658,5.47357 -15.11427,9.02576 -28.36855,13.05705 -8.75795,2.66375 -12.64784,3.27233 -23.02111,3.60172 -6.86523,0.21782 -3.14576,1.08864 -3.46653,1.51134 -1.26553,1.66679 -2.41462,14.04099 -2.03345,63.2641 l 0.14005,18.10859 -0.37898,51.19048 c 2.60985,10.04219 3.07289,-12.17999 -1.77998,1.82763 -1.30518,3.76771 -0.72559,5.21708 -1.19164,8.05442 -1.6273,9.90869 -0.11945,23.91642 5.40465,41.37152 3.62734,11.46157 -9.58055,26.88162 -7.90297,38.15098 2.25365,15.13875 2.89907,18.16944 6.21289,29.17598 2.40636,7.99284 -1.47932,10.37728 -1.47932,20.66375 0,6.39557 0.44935,13.25192 0.99876,15.23638 0.5494,1.98452 1.07688,10.11509 1.17221,18.06804 0.12993,10.82029 0.57877,15.82165 1.78389,19.87032 0.91641,3.07813 1.36947,6.52057 1.05106,7.98559 -1.0325,4.74996 -1.44675,9.38371 -9.92628,14.18608 -11.8023,6.68443 -17.20222,8.74282 -29.03439,11.06776 -2.87376,0.56471 -9.85356,1.93661 -15.5108,3.0487 -13.75172,2.7034 -35.01374,5.09164 -51.42914,5.77676 -24.17375,1.00893 -59.5712,1.23098 -78.70883,0.49367 z m 85.86429,-23.23301 c 11.9383,-0.82816 41.53728,-4.56293 45.39174,-5.7275 1.8448,-0.55735 3.35398,-1.51485 3.35398,-2.12774 0,-1.20188 -4.62777,-0.8925 -25.93806,1.73406 -20.85875,2.57088 -40.74321,3.65941 -66.63419,3.64772 -41.97448,-0.0196 -71.57346,-2.07251 -104.6469,-7.26026 -5.67749,-0.89052 -21.70884,-5.85058 -27.27986,-8.44022 -3.78696,-1.76034 -0.88435,0.78514 4.32102,3.78938 5.49339,3.17046 29.53857,9.05489 46.25432,11.31959 11.40391,1.54504 38.98125,3.52026 55.41336,3.96903 13.65891,0.3732 60.01379,-0.22756 69.76459,-0.90406 z M 190.07569,529.53477 c -7.08489,0.9148 8.38657,7.00258 13.55177,9.34389 13.97024,6.33231 33.1864,3.23787 34.93721,8.47668 1.77022,5.29619 -0.46352,13.99829 -10.25076,17.66334 -3.2244,1.20741 -5.8626,2.76458 -5.8626,3.46029 0,0.69575 3.17006,1.60507 7.0446,3.55063 14.01005,7.03496 12.82012,9.39486 -9.10049,9.72648 -9.19987,0.13937 -23.01149,-4.11663 -23.62636,-3.84759 -1.63574,0.7157 -1.36542,3.07379 0.58619,5.11345 4.76108,4.97546 30.14973,9.42018 71.19093,12.46313 20.34899,1.50874 66.26752,1.31322 85.41696,-0.36382 l 4.9e-4,1.4e-4 c 20.77539,-1.81932 48.87194,-6.48262 56.98261,-9.45754 3.05431,-1.12041 6.15957,-2.03707 6.9005,-2.03707 1.83383,0 7.46627,-5.8438 9.05762,-9.39758 1.44056,-3.04212 2.86627,-7.9345 4.25746,-14.42393 1.24636,-5.81384 -15.87996,-5.21647 -14.70318,-13.41189 0.42329,-2.94793 13.87802,-5.45387 14.32439,-8.69241 0.46762,-3.39264 -18.47702,-16.44887 -16.36073,-19.5099 9.83925,-14.2317 15.61141,-6.3777 22.6224,-11.81923 4.54412,-3.52689 9.82421,-6.60687 12.51071,-11.58498 7.54517,-13.98131 -7.215,-14.1205 -7.1731,-25.08078 0.0451,-11.80871 11.82262,-7.14238 12.49032,-22.02913 1.55217,-34.60707 -13.45958,-47.20833 -11.14261,-62.74506 3.14421,-21.08398 15.16858,4.92036 15.35011,-4.75617 1.78502,-95.15515 1.82302,-231.83591 -8.22555,-285.55177 -1.10236,-3.976436 -16.36145,-8.338458 -17.08988,-10.894737 -1.37588,-4.829047 -8.29258,-13.537118 -13.09837,-16.491111 -2.22446,-1.367291 -2.5481,-1.342149 -3.32361,0.258033 -1.16108,2.395692 -2.72122,2.236422 -7.92574,-0.809077 -6.35649,-3.719601 -7.15529,-3.488972 -7.15529,2.065677 0,5.296296 -1.1275,5.89732 -3.7743,2.011833 -1.69244,-2.484617 -1.89053,-2.536723 -3.44949,-0.907602 -2.41446,2.523291 -3.82375,1.394864 -8.50417,-6.808904 -4.39391,-7.701792 -8.36834,-11.396252 -14.30872,-13.300852 -4.84511,-1.553426 -4.84579,-1.553156 -4.84579,2.307847 0,1.893549 -0.2234,3.700839 -0.49642,4.016174 -0.79526,0.9183 -12.13758,-2.356613 -16.05025,-4.63429 -4.41821,-2.571854 -13.03897,-9.224997 -18.13145,-13.992894 -4.44875,-4.165337 -7.79497,-5.118143 -21.22305,-6.043075 -23.65269,-1.629238 -34.84366,0.610524 -26.16164,5.236057 2.75885,1.46985 6.18252,2.042763 31.52815,5.275863 5.90326,0.752971 11.90978,1.778942 13.34793,2.279888 2.77724,0.967453 4.91631,3.813386 3.81868,5.080836 -1.6246,1.876016 -17.26397,4.661255 -28.79393,5.127981 -13.68355,0.553845 -16.54685,0.978994 -16.54685,2.456775 0,1.878784 3.35095,3.01386 11.8676,4.020072 12.06823,1.425742 15.52852,3.841919 8.82393,6.161561 -4.524,1.56517 -8.97376,1.509267 -19.57938,-0.245934 -4.79297,-0.793316 -12.91107,-1.468533 -18.04017,-1.500543 -5.12909,-0.03122 -11.1665,-0.544244 -13.41627,-1.138349 -2.24993,-0.594089 -7.51183,-1.970999 -11.69329,-3.059774 -9.8944,-2.576342 -26.95336,-3.582047 -33.24876,-1.960233 -2.62015,0.675066 -5.88335,2.283921 -7.25147,3.575349 -2.92252,2.758645 -7.71549,4.46412 -12.7177,4.525253 -9.05459,0.110523 -19.45131,3.970058 -20.68342,7.678051 -0.2715,0.81731 2.70468,4.985212 7.20337,10.087596 4.21657,4.782104 7.66639,9.240841 7.66639,9.908297 0,1.55405 -0.29545,1.53019 -4.1629,-0.335719 -3.62616,-1.749548 -5.67581,-1.981038 -5.67581,-0.640947 0,1.876573 7.01743,9.106918 14.33403,14.768888 9.16798,7.0946 13.27639,11.72463 11.85748,13.36311 -1.53399,1.77142 -9.41197,-1.70321 -16.73178,-7.37977 -11.05378,-8.57211 -13.47111,-7.67876 -6.32915,2.33904 4.47102,6.2716 5.3466,10.91143 2.23593,11.85077 -0.9839,0.29707 -1.78878,0.91705 -1.78878,1.3776 0,0.83219 2.76037,3.52096 5.94038,5.78641 1.33724,0.95262 1.44355,1.44729 0.54418,2.53048 -0.61488,0.74048 -1.11805,2.36867 -1.11805,3.61812 0,1.24948 -1.38145,4.64236 -3.07,7.53982 -2.48077,4.25691 -2.77808,5.268 -1.54917,5.268 0.83626,0 3.00149,-1.16196 4.81119,-2.58211 1.80987,-1.42016 -2.93586,8.71594 -2.363,8.71594 -1.74656,2.51068 -2.80603,4.20658 -4.74974,13.26777 -2.09713,9.77638 -1.53688,13.6495 0.60152,13.6495 0.88317,0 2.68748,-0.98256 4.00953,-2.18344 3.58583,-3.25711 3.77144,-1.64871 0.42994,3.7245 -2.54337,4.08955 -2.80812,5.0527 -1.86741,6.79214 0.90224,1.66847 0.77703,2.83583 -0.70886,6.60216 -0.99268,2.51647 -1.80498,4.83326 -1.80498,5.14848 0,1.82462 1.30694,0.65536 6.82329,-4.88194 2.85363,-0.25146 -2.33166,4.40332 -1.71753,10.97669 1.73563,18.57737 1.69636,60.07568 1.52809,106.5057 -0.0323,8.92515 2.85968,20.12476 2.82949,29.28659 -0.0395,11.98528 -0.29753,14.27491 -0.61871,25.92367 -0.15886,5.76173 7.19887,2.19203 7.02792,8.37809 -0.71576,25.90066 -8.90468,63.7305 -8.12236,82.39603 -3.5531,7.75171 -0.14324,30.15803 0.1971,37.81894 m -13.74595,-245.2275 c 1.3018,-0.57158 2.21804,-1.61734 2.03614,-2.32389 -0.42623,-1.65599 -10.94714,-7.60978 -15.01977,-8.49982 -12.86821,-2.81232 -32.12524,-10.92259 -39.45046,-16.61505 l -4.681,-3.63763 -1.18482,3.25391 c -1.42102,3.90273 -0.93884,5.1062 2.04604,5.1062 1.62713,0 2.17449,0.49424 2.00177,1.80747 -0.39715,3.02036 0.85663,6.90286 2.63962,8.17367 2.77132,1.9753 18.20038,9.34557 22.52933,10.76203 3.53233,1.1558 13.15573,2.32491 23.42034,2.84523 1.81274,0.0921 4.361,-0.30059 5.66281,-0.87212 z m 315.26797,-1.19059 c 7.67871,-1.67416 23.19187,-9.20141 26.58922,-12.9015 2.42863,-2.64494 2.89097,-3.78111 2.42019,-5.9469 -0.51212,-2.35676 -0.30896,-2.67729 1.69834,-2.67729 1.25422,0 2.50051,-0.41137 2.76947,-0.9142 0.61539,-1.14964 -1.20646,-7.34855 -2.15966,-7.34855 -0.3886,0 -2.67043,1.55999 -5.07071,3.46665 -5.7384,4.55821 -17.76158,10.03467 -31.70498,14.44125 -11.61568,3.671 -21.49961,8.48409 -22.0853,10.75485 -0.18308,0.71082 0.6061,1.74654 1.75402,2.30172 2.39792,1.15946 18.43113,0.42835 25.78941,-1.17603 z m -314.83533,-13.1933 c 0,-1.25187 -1.40356,-1.73129 -12.10434,-4.13422 -13.13296,-2.94908 -29.70566,-9.77624 -37.94801,-15.63273 -5.80266,-4.12302 -7.52634,-3.73766 -3.16549,0.70773 6.66732,6.79657 21.85235,13.65045 34.88238,15.7443 3.44342,0.55334 8.27334,1.71093 10.73302,2.57239 5.26492,1.84406 7.60244,2.07235 7.60244,0.74253 z m 299.47251,-1.73426 c 1.63489,-0.76554 5.65977,-1.69942 8.94407,-2.07526 6.27178,-0.71774 18.21447,-5.09179 25.45733,-9.32391 4.08124,-2.38481 11.7748,-9.53762 11.0985,-10.31855 -0.17616,-0.20338 -3.41068,1.6636 -7.18786,4.14923 -3.77717,2.48557 -10.78768,6.01862 -15.57913,7.85117 -4.79146,1.83257 -9.50428,3.81978 -10.47316,4.41603 -0.96872,0.59623 -4.9936,1.72783 -8.94407,2.51467 -9.66137,1.92419 -13.89093,3.29535 -13.89093,4.50327 0,1.25034 6.48811,0.19713 10.57525,-1.71665 z M 163.01964,232.20084 c -1.29303,-1.8462 -3.42587,-4.98346 -4.73965,-6.97168 -1.31362,-1.98825 -4.06521,-5.93888 -6.11469,-8.7792 -4.5429,-6.29581 -8.96752,-15.54438 -13.34186,-27.88685 -1.81189,-5.1126 -3.5934,-9.76039 -3.95887,-10.32849 -0.36546,-0.56805 -2.03183,-5.56359 -3.70308,-11.10113 -1.67127,-5.53756 -3.34052,-10.06917 -3.70946,-10.07027 -1.27464,-0.003 -0.71018,35.24738 0.68637,42.86082 1.54674,8.43253 1.74148,18.68965 0.37342,19.66603 -1.4695,1.04877 1.60826,4.38434 6.26358,6.78834 5.89251,3.04286 24.13802,9.07362 27.62379,9.1306 l 2.97163,0.0488 -2.35118,-3.35674 z m 325.99812,-0.25724 c 14.00482,-4.65489 21.10982,-8.53952 20.7818,-11.3623 -0.6083,-5.23343 -0.13499,-14.20797 1.11147,-21.04731 0.9267,-5.0873 1.36457,-13.34287 1.36457,-25.72812 0,-20.2031 -0.37578,-20.79154 -4.42715,-6.93257 -1.16243,3.97643 -3.05751,9.42378 -4.21116,12.10516 -1.15383,2.6814 -2.74873,7.09681 -3.54449,9.81204 -3.49471,11.92505 -9.33334,22.5181 -23.44548,42.53691 l -2.98192,4.23016 h 2.23964 c 1.23178,0 7.13251,-1.6263 13.11272,-3.61397 z m -318.33038,-2.41133 c -0.7011,-1.51253 -0.68001,-2.1785 0.0776,-2.47018 0.66246,-0.25491 0.17498,-1.86489 -1.34889,-4.45445 -1.31243,-2.23031 -2.3861,-4.66292 -2.3861,-5.40579 0,-2.38749 -3.72133,-9.92814 -6.94791,-14.07906 -2.88102,-3.70622 -9.15162,-17.55203 -9.15162,-20.207 0,-0.62419 -0.95015,-3.32714 -2.1114,-6.00658 -1.16142,-2.67944 -4.63959,-13.47013 -7.7295,-23.97935 -3.08974,-10.50924 -5.98005,-19.56857 -6.42273,-20.13186 -1.68142,-2.13957 -2.62096,2.12804 -2.1583,9.80341 0.2242,3.71959 0.75048,7.77591 1.51971,11.89881 1.21708,6.52331 3.04237,13.21328 5.24166,18.99976 3.57739,9.41203 13.94779,30.70377 17.92138,36.79495 1.72179,2.63923 4.41466,6.96289 5.98408,9.60818 6.33455,10.67646 7.64243,12.65738 8.04791,12.18913 0.23302,-0.26897 0,-1.42102 -0.53608,-2.55997 z m 303.15401,-6.53316 c 0.94408,-2.07855 3.34082,-5.94642 5.32601,-8.59525 7.86263,-10.49042 21.91825,-41.74579 25.10754,-55.83105 1.05258,-4.64889 1.93288,-12.04219 2.02468,-17.00427 0.2634,-14.24727 -1.44372,-11.9231 -8.34489,11.36132 -3.28311,11.07729 -6.78305,21.99964 -7.77775,24.27189 -0.99471,2.27224 -2.32081,5.99049 -2.94699,8.26279 -1.98469,7.20328 -6.06947,15.64133 -8.90593,18.39738 -2.54591,2.47382 -6.29726,10.54658 -6.29726,13.55151 0,0.71975 -1.20749,3.23349 -2.68326,5.58607 -1.47577,2.35258 -2.67701,4.63002 -2.66958,5.06099 0,0.43097 0.38826,0.0999 0.84587,-0.73576 0.45762,-0.83567 1.12902,-1.17648 1.49181,-0.75742 0.36295,0.41905 0.18358,1.31189 -0.39856,1.98411 -0.58214,0.67221 -1.04397,1.94263 -1.02626,2.82313 0.0405,2.02297 3.84653,-3.07335 6.25457,-8.37544 z m 60.1466,4.55391 c 0.19371,-0.42605 0,-2.74994 -0.44715,-5.16425 -0.83373,-4.58088 -2.32554,-5.54759 -4.30684,-2.79068 -0.94409,1.31346 -0.88638,2.23527 0.32313,5.16419 1.35141,3.27248 3.5757,4.67344 4.43086,2.79074 z m -423.30628,-5.54606 c 0,-1.08699 -2.65393,-4.00779 -3.64159,-4.00779 -1.14873,0 -1.04143,3.81217 0.18152,6.45113 0.98018,2.1149 1.05086,2.12286 2.23605,0.25101 0.67316,-1.06306 1.22392,-2.27557 1.22392,-2.69447 z m 14.31068,-3.3615 c 0,-0.21274 -0.60371,-2.36256 -1.34165,-4.77766 -0.73788,-2.41512 -1.35384,-5.84321 -1.36883,-7.61802 -0.0354,-4.22201 -1.32932,-1.74688 -2.17096,4.15345 -0.51931,3.64075 -0.3083,4.6071 1.40959,6.45524 1.81971,1.95774 3.47185,2.80807 3.47185,1.78699 z m 393.44734,-3.09368 c 1.12615,-1.56686 0.61656,-7.88817 -0.88503,-10.97959 -0.52916,-1.0892 -0.76066,-0.54261 -0.77973,1.84064 -0.0169,1.86445 -0.63091,5.05852 -1.36879,7.09787 -0.73789,2.03935 -1.34163,4.13227 -1.34163,4.65095 0,1.18203 2.88827,-0.54091 4.37518,-2.60987 z m -407.06595,-1.86834 c -0.49016,-1.69819 -3.16108,-3.50587 -3.90711,-2.64436 -0.85091,0.9826 1.34982,3.86159 2.95186,3.86159 0.71865,0 1.14853,-0.54775 0.95525,-1.21723 z M 530.66387,213.425 c 1.62544,-1.38131 1.63557,-1.52051 0.1603,-2.18121 -0.86714,-0.38801 -2.17519,-0.13195 -2.90683,0.56911 -2.96015,2.83699 -0.43652,4.3179 2.74721,1.6121 z m -416.40328,-6.01262 c 6.7e-4,-0.14208 0.60385,-4.20882 1.34039,-9.03739 0.73657,-4.82856 1.32693,-11.33548 1.31196,-14.45986 -0.0236,-5.0409 -0.1657,-5.46982 -1.25616,-3.80878 -0.67592,1.02952 -1.91317,4.98015 -2.74946,8.77921 -0.8363,3.79901 -2.09104,8.99714 -2.7883,11.55142 -1.15156,4.21839 -1.12723,4.76275 0.26571,5.93885 1.32477,1.11864 3.87235,1.79995 3.87596,1.03655 z m 414.41168,-1.03655 c 1.39275,-1.1761 1.41722,-1.72046 0.26576,-5.93885 -0.69739,-2.55428 -1.95212,-7.75241 -2.78838,-11.55142 -0.83626,-3.79906 -2.11343,-7.74969 -2.83815,-8.77921 -1.17643,-1.67127 -1.26924,-0.87578 -0.86613,7.42373 0.5511,11.34325 2.12221,20.14052 3.59697,20.14052 0.60306,0 1.78658,-0.58265 2.62993,-1.29477 z m -360.14726,-1.54554 c -0.27622,-0.99413 -1.70728,-5.5952 -3.18001,-10.22465 -3.75203,-11.79509 -5.08657,-20.13056 -9.06944,-56.64863 -3.62852,-33.26711 -5.44413,-46.109343 -7.4715,-52.845741 l -1.19314,-3.964338 -3.27383,7.495039 c -4.38851,10.047319 -6.20091,19.3756 -5.45121,28.05588 1.31311,15.20218 10.86783,56.45545 15.5086,66.96006 1.87349,4.24052 9.95885,18.95068 11.90321,21.65616 1.38634,1.92876 2.812,1.6191 2.22732,-0.48378 z M 479.79983,192.9951 c 7.21873,-13.39153 12.43726,-30.04053 14.98603,-47.81173 0.81483,-5.68061 2.30967,-13.34953 3.32175,-17.04193 2.51485,-9.17462 2.53173,-22.09261 0.0405,-30.468993 -1.77039,-5.951299 -6.36391,-16.45198 -6.91366,-15.804672 -1.80363,2.123216 -7.82703,45.158735 -8.86189,63.315595 -0.16199,2.84035 -0.92248,9.3473 -1.69007,14.45986 -0.76775,5.1126 -1.65818,11.88758 -1.97878,15.05553 -0.32077,3.1679 -2.27862,11.61841 -4.35121,18.77887 -4.67621,16.15594 -3.46333,16.04852 5.44767,-0.48253 z m -6.96782,-52.65021 c 0.12486,-6.77885 2.28335,-18.0416 5.95725,-31.0872 3.80924,-13.525042 4.87414,-25.200504 2.81538,-30.86797 -1.73799,-4.784804 -4.20982,-6.489772 -6.5475,-4.515956 -1.54394,1.303796 -1.69513,3.048333 -1.76279,20.358695 -0.0591,15.043231 -0.4723,21.224421 -2.01236,30.088221 -2.20893,12.71238 -2.34696,16.09064 -0.89515,21.89556 0.97783,3.90915 1.06895,3.99249 1.6948,1.54929 0.36362,-1.42019 0.70143,-4.75947 0.75037,-7.42064 z M 373.19356,16.640563 c 5.41122,-1.048531 12.75668,-2.459711 16.3231,-3.135908 3.56659,-0.676179 6.48456,-1.712493 6.48456,-2.302852 0,-1.159392 -0.48124,-1.106611 -19.67725,2.157064 -6.64098,1.129086 -17.91075,2.667527 -25.04359,3.418744 -11.58868,1.220457 -12.44553,1.43676 -8.04976,2.03203 6.8092,0.922164 18.30474,0.08977 29.96294,-2.169078 z M 267.00154,15.728354 c 1.41013,-1.033429 -8.50417,-3.249686 -17.23782,-3.853427 l -6.26081,-0.432776 4.47203,1.407704 c 10.30628,3.244152 17.12105,4.275117 19.0266,2.878499 z"
       id="path885"
       inkscape:connector-curvature="0"
       sodipodi:nodetypes="cccccscccccccccccccccscccscscsccsccssssccccssccccsccccsscsccccccsssccssccccsccccccsccccscccsccssssssssssccccscsccscccscsccsscssccsccccsscssccscsccscscscsccccsccsssssccsccccsccsccsscscsccccssscsccssccsccscssccsscccccccccccccscscccsccccscscscccsccsccccccssccssccsccccccccccsccccsccccscccsscccscccccccccccccccccccsccccsccsccscccccccccccccccccscccccsssscccccc"
       inkscape:export-xdpi="25.4"
       inkscape:export-ydpi="25.4" />
  </g>
  <g
     inkscape:groupmode="layer"
     id="layer4"
     inkscape:label="Layer 4"
     style="display:inline">
    <path
       style="fill:#d2d2d2;fill-opacity:1;stroke-width:0.96114349;filter:url(#filter1104)"
       d="m 190.0786,619.38589 c 8.08594,3.3547 26.37329,8.53513 35.17416,9.96342 3.64514,0.59145 7.23122,1.27823 7.96911,1.52766 2.15843,0.7299 22.71463,2.82396 35.3292,3.59829 3.64159,0.22367 9.70492,0.38957 16.6942,0.52029 16.82337,0.60154 34.64219,0.65053 51.79564,0.19872 12.63598,-0.11052 23.52126,-0.32868 28.55461,-0.67991 34.337,-2.39608 62.86677,-7.38163 80.29695,-14.03172 7.14265,-2.72513 16.15995,-10.20995 18.35233,-13.53492 3.25077,-4.93002 3.47757,-6.98444 1.56767,-14.18559 -1.36755,-5.15637 -1.74228,-9.47392 -1.69123,-19.52976 0.0361,-7.10087 -0.38805,-14.53466 -0.94253,-16.51922 -0.067,-0.2401 -0.1301,-0.56051 -0.19371,-0.93442 -0.17782,-4.24096 -0.37446,-8.45312 -0.57907,-11.98361 -0.0835,-1.43917 -0.1603,-2.36721 -0.24002,-3.60391 -0.027,-9.47451 3.19475,-12.56108 0.49105,-21.89287 -1.71304,-5.91242 2.74345,-17.1588 1.47199,-24.99135 -2.17321,-13.38728 3.7553,-39.11479 -1.13307,-55.98497 -4.47792,-15.4537 -3.14652,-30.15434 -2.03846,-38.68686 0.32418,-2.49739 0.37289,-1.43878 2.30707,-7.38517 1.79457,-5.51709 0.42638,-16.5388 0.79121,-19.84563 10e-5,-9e-4 -7e-5,-10e-4 0,-0.003 0.20891,-0.9795 0.32451,-1.68664 0.32451,-2.03689 0,-0.39834 -0.0849,-1.10177 -0.21093,-1.93899 -0.14495,-2.58879 0.18964,-25.68357 -0.75976,-29.13104 -2.51392,-9.12868 -4.04584,3.05655 3.98326,-61.09795 0.99952,-7.98682 -2.97551,-12.03404 -2.60152,-13.64884 l 10.58005,1.22178 -5.51201,-1.85791 c 11.9758,-0.13044 13.65886,2.27244 29.00368,-3.07481 14.8873,-5.18782 27.18403,-13.79608 31.29012,-21.90802 1.71611,-3.39023 3.05971,-4.78575 5.05669,-5.25739 4.00216,-0.94519 4.79748,-1.79968 4.79748,-5.14266 0,-2.89691 -1.22039,-8.14125 -13.92233,-59.86509 -8.58541,-34.96083 -16.03984,-60.02758 -26.57261,-89.34167 -2.73406,-7.60919 -4.64008,-12.793073 -7.32219,-16.966814 -0.027,-0.04792 -0.0643,-0.12419 -0.092,-0.170677 -1.76364,-2.938755 -3.53294,-5.112913 -7.63234,-7.881851 -6.34297,-4.666452 -16.28257,-9.34453 -33.85606,-17.543404 -11.58442,-5.404693 -25.49121,-11.891579 -30.90245,-14.41509 -5.41124,-2.523527 -10.84381,-5.650019 -12.07361,-6.950137 -2.92177,-3.088761 -6.20019,-5.7741917 -8.6936,-7.2774853 l -1.09034,-0.8813633 -0.40947,0.075425 C 396.55315,5.9101215 395.84785,5.74454 395.4244,5.8970612 c -5.35775,1.9300124 -33.2741,5.5495528 -52.93446,6.8634058 -8.52702,0.569841 -17.09065,1.447003 -19.02994,1.950176 -1.93928,0.503174 -4.27448,0.690556 -5.18998,0.414098 -0.9155,-0.276459 -1.91096,-0.04252 -2.21216,0.520418 -0.33973,0.634771 2.93267,1.290786 8.61848,1.729131 12.43083,0.958375 46.95847,-2.655834 64.80211,-6.785044 3.43202,-0.7942111 5.17003,-0.7575952 6.62679,0.142582 2.96749,1.833917 0.97044,2.674682 -12.23835,5.153848 -6.29925,1.182306 -12.09662,2.54705 -12.88291,3.032995 -2.48973,1.538695 -18.76678,3.198138 -32.66879,3.329584 -29.55568,0.279428 -33.64156,0.185492 -47.85108,-1.08562 -20.91718,-1.871157 -26.88648,-2.729082 -37.80062,-5.436432 -9.25709,-2.296306 -11.80161,-4.159684 -6.64376,-4.865645 1.306,-0.17876 7.51297,0.672838 13.7939,1.891405 14.38507,2.790857 24.38957,3.744625 24.38957,2.325109 0,-2.733284 -3.45655,-3.789863 -17.88876,-5.4728111 -4.18135,-0.4875989 -10.51607,-1.5864134 -14.07737,-2.439817 l -6.47382,-1.5499326 -6.49357,3.444274 c -0.49912,0.2648156 -1.01522,0.5882673 -1.52646,0.8897495 -0.0203,0.00506 -0.0515,0.019573 -0.0727,0.02531 -1.07944,0.2954752 -3.28301,1.8569652 -5.24086,3.6345582 -0.7941,0.645469 -1.50072,1.258473 -1.98197,1.785084 -1.48488,1.279211 -3.49488,2.636632 -6.54684,4.348028 -1.97646,0.826524 -4.89608,2.19579 -8.05875,3.822026 -4.95241,2.546475 -18.66487,9.059482 -30.47118,14.473844 -19.18377,8.797636 -32.95425,16.510447 -37.27727,20.87837 -2.97544,3.006334 -16.95972,42.151465 -24.93229,69.789505 -8.61056,29.84952 -23.566279,91.69116 -23.589936,97.54524 -0.02025,4.78741 1.575306,6.9068 5.972596,7.92663 0.61238,0.14208 1.09375,0.33611 1.46831,0.59316 0.33501,0.4282 0.65527,1.0176 0.96435,1.68158 0.0135,0.13195 0.027,0.26389 0.027,0.40848 0,1.72484 1.1878,3.89607 3.27825,6.24784 0.17782,0.26076 0.36164,0.54826 0.52337,0.74708 0.47564,0.58466 1.43511,1.39061 2.57076,2.27194 2.65651,2.32681 5.99947,4.71333 9.87357,6.94732 5.08519,2.93236 11.78057,6.27664 14.87942,7.43137 11.93994,4.44917 30.94572,6.85313 41.7234,5.27694 1.13506,-0.16586 1.88492,-0.25099 2.43506,-0.18463 0.68218,0.29317 1.25051,1.27982 1.87778,3.90874 0.82487,4.69171 -4.9697,22.0815 -1.3571,52.0069 0.66127,5.47755 -0.80305,2.98205 -0.98306,13.59898 -0.0906,5.33885 2.28554,17.08196 2.52937,24.60038 0.25963,7.99938 -1.60855,11.65704 -1.58452,12.88836 0.003,0.24985 0.003,0.49641 0.003,0.73866 0.003,0.95171 -0.003,1.8544 -0.0533,2.68881 -0.007,0.15777 -0.0236,0.30371 -0.0305,0.45888 -0.20082,2.85066 -0.71767,5.22608 -1.54344,8.26797 -2.54664,9.38153 7.11815,8.12225 0.32588,39.74406 4.53093,12.97735 2.84712,8.46558 1.01821,23.86945 -1.87576,15.79843 4.46483,3.29768 -1.09768,23.82788 -2.46191,9.08639 2.28718,12.3282 1.27864,18.93383 -1.66179,-0.58042 -1.59002,34.73844 -0.53477,43.99694 2.24373,19.68604 -0.23189,66.77525 0.34327,76.6454 z m 247.07009,-100.6762 c -4.17043,-1.12142 -9.19683,-1.90262 -11.16985,-1.73476 -2.98994,0.25452 -3.63622,0.70967 -3.88401,2.73085 -0.1795,1.46538 0.50357,3.41146 1.72757,4.91603 2.25228,2.76843 11.59586,8.14981 20.48128,11.79609 7.42246,3.04591 7.82544,3.43744 7.3537,7.14886 -0.54605,4.29625 -1.51611,4.8806 -9.07399,5.47553 -7.09117,0.55828 -9.24535,2.1017 -8.36405,5.99323 0.34674,1.5311 2.61765,2.79982 9.30417,5.1986 9.1588,3.28586 11.80091,5.1598 11.32734,8.03864 -0.21535,1.30854 -1.70634,1.79745 -6.7116,2.19916 -7.63269,0.61254 -9.79126,2.26511 -6.73098,5.15387 1.82393,1.72164 9.02974,4.14095 12.33286,4.14095 2.09836,0 1.48664,2.90822 -1.00795,4.79576 -3.96057,2.99661 -19.74451,8.50366 -32.0025,11.16663 -15.28805,3.32123 -31.93877,5.47406 -52.45228,6.78225 -35.39551,2.25716 -87.86525,1.53847 -116.27307,-1.5948 -20.27797,-2.23668 -39.43478,-6.06962 -40.75422,-8.15325 -0.54865,-0.86656 -4.58396,-3.03559 -8.96737,-4.82103 -6.79329,-4.0656 -16.16464,-7.56532 -15.5065,-12.61506 0.56067,-4.30137 12.29956,-1.00523 17.48379,0.0388 19.26019,4.99139 24.90322,5.41445 24.90322,1.87192 0,-2.97961 -5.72448,-5.08158 -17.18607,-6.31516 -13.01852,-1.40087 -17.56716,-3.74657 -19.44667,-10.02503 -1.85818,-6.20696 -0.61776,-9.80284 3.81615,-11.07437 3.27257,-0.93835 16.35747,0.54908 21.9932,2.50142 1.28026,0.44349 5.04898,1.37912 8.37618,2.07604 4.75084,0.99588 6.33158,0.99776 7.36096,0.0152 0.97576,-0.93519 1.07524,-1.76102 0.39495,-3.229 -1.80535,-3.89527 -13.32291,-11.62661 -24.05776,-14.59514 -12.48682,-3.4532 -10.06824,-6.09797 -14.26444,-11.46163 -12.15483,-25.65556 -7.15215,-87.88029 -3.3116,-146.21159 0.66649,-10.1229 -2.55104,-15.72181 -3.47702,-25.19908 -1.09713,-11.22912 -0.88525,-26.23616 -0.75902,-36.79009 0.93712,-78.3508 -2.3328,-44.7233 -3.32429,-64.42764 -1.2554,-24.94926 2.00076,-42.70407 -0.64168,-37.83213 v -4e-5 c -1.61033,5.37125 -3.0254,5.62672 -4.75384,0.85619 -1.33431,-3.68248 -1.32201,-4.3497 0.15996,-9.38997 1.79403,-6.10178 1.31149,-7.7174 -1.44407,-4.83765 -1.83364,1.91622 -1.89029,1.90834 -3.56418,-0.60719 -2.05339,-3.08584 -2.30322,-10.87715 -0.50882,-15.83644 0.67673,-1.87042 2.68678,-5.73906 4.46552,-8.59812 4.24476,-6.82286 6.05706,-11.87398 4.9598,-13.81071 -0.67917,-1.19883 -1.54236,-0.57405 -4.35893,3.1533 -1.93172,2.55631 -4.07186,4.53037 -4.75867,4.38441 -0.68684,-0.14596 -1.98023,0.6674 -2.87364,1.80744 -2.12581,2.71253 -2.82615,2.61331 -3.5012,-0.49241 -0.9415,-4.33191 0.44184,-10.55506 3.60538,-16.22538 3.24824,-5.82205 3.93613,-10.1314 1.61854,-10.1314 -1.85528,0 -5.06079,2.01848 -6.30696,3.97029 -0.86844,1.36021 -1.13476,1.28055 -2.01349,-0.61555 -1.06154,-2.29042 -1.43888,-20.91195 -0.424,-20.91195 0.32249,0 1.83113,1.0807 3.35336,2.40066 3.93786,3.41462 5.59413,3.91299 6.91028,2.08167 0.97662,-1.35887 0.071,-2.77609 -6.19551,-9.68933 -7.26505,-8.01517 -9.90841,-12.65474 -4.57697,-8.03294 10.92345,9.46945 14.72285,7.78711 8.89712,-3.94231 -1.81906,-3.66252 -4.04227,-6.30766 -7.17926,-8.53659 -4.33492,-3.08014 -6.21385,-5.675398 -5.06639,-7.000488 0.29107,-0.336158 3.49015,1.080068 7.10898,3.144918 6.77732,3.86701 11.36612,4.82515 11.36612,2.37546 0,-0.757594 -1.51114,-3.26872 -3.35824,-5.579132 -2.57241,-3.217627 -4.61296,-4.598907 -8.72025,-5.9065 -7.98861,-2.543269 -9.82513,-3.567367 -8.70811,-4.857242 0.67061,-0.774401 2.27719,-0.589888 5.46377,0.632324 5.26181,2.018178 10.29211,1.795698 10.59804,-0.47005 0.39159,-2.901447 -5.9654,-6.438392 -12.7157,-7.073247 -5.0208,-0.472194 -5.64088,-0.69874 -3.13048,-1.147158 4.772,-0.852425 3.91419,-3.192097 -1.78814,-4.874049 -2.70562,-0.798041 -5.47045,-2.081082 -6.14219,-2.853914 -1.93134,-2.221944 1.96236,-4.421851 9.27265,-5.237795 3.44353,-0.384349 11.09558,-1.582533 17.00677,-2.663647 8.01294,-1.465513 11.54066,-1.702437 13.85936,-0.934515 7.64634,2.532352 11.9029,0.340832 10.09404,-5.193012 -1.16548,-3.565613 0.40684,-5.698801 5.36689,-7.280288 3.55748,-1.134299 6.64471,-0.456922 16.33559,3.578589 3.47395,1.446632 8.70667,2.899642 11.62778,3.228847 10.54753,1.188701 26.00532,3.758024 31.78197,5.282544 7.05687,1.862383 12.88532,1.581116 12.88532,-0.621154 0,-2.124937 -7.24422,-5.00725 -14.50141,-5.769383 -8.55645,-0.898575 -15.99153,-3.363162 -14.68799,-4.868464 0.75547,-0.87242 2.66695,-0.727695 7.49906,0.565201 9.71306,2.598885 26.54904,4.109873 37.24576,3.340771 11.58351,-0.832886 15.30102,-1.999515 15.30102,-4.795705 0,-3.36328 -5.24832,-5.08497 -17.30481,-5.677067 -8.46082,-0.415296 -13.64401,-1.35241 -23.39126,-4.235887 -21.27901,-6.294813 -21.27021,-6.303284 8.05393,-6.281415 l -2e-4,-0.0033 c 24.12189,0.01789 40.68259,0.811658 49.11827,2.350285 2.31202,0.421707 5.27193,2.295513 8.68632,5.500788 11.54684,10.839725 26.46064,18.428952 28.58852,14.549388 1.32338,-2.412853 0.95927,-3.221946 -3.73378,-8.309937 -2.65401,-2.877385 -4.28127,-5.414344 -3.91307,-6.102369 0.98611,-1.842472 7.34027,-0.221332 12.5073,3.192485 2.51698,1.662919 5.95627,3.155008 7.64204,3.312777 2.65548,0.2486 3.03854,-0.0067 2.87119,-1.908194 -0.28363,-3.222099 4.71898,-3.904251 10.72402,-1.463337 2.571,1.045038 7.63138,3.108133 11.245,4.585863 6.69684,2.738532 9.20986,3.225793 10.27575,1.994925 1.37268,-1.585131 -2.87912,-4.689957 -9.86386,-7.204727 -4.10367,-1.477477 -7.71518,-3.159733 -8.02486,-3.738078 -0.98817,-1.846336 8.20517,-0.199751 12.15356,2.176807 4.37509,2.633341 5.43474,2.764129 5.43474,0.677107 0,-2.236388 0.63678,-1.962376 4.62058,1.975369 2.51426,2.485157 5.42455,4.047322 9.87839,5.307719 3.47254,0.98269 11.39216,3.98322 17.59801,6.667537 6.20582,2.6843 13.49674,5.473166 16.20233,6.194685 19.03197,5.075352 22.86183,6.925383 24.66574,11.910899 2.27866,6.297632 1.2594,15.825123 -4.14325,38.695786 -3.36513,14.24538 -4.24503,21.32144 -4.81688,38.73215 -0.28159,8.57426 -1.13631,17.61125 -2.10069,22.20459 l -1.62821,7.74757 -0.58395,-8.3911 c -0.84886,-12.15879 -5.50554,-21.04623 -11.02688,-21.04623 -3.80247,0 -4.10262,1.53431 -1.47557,7.57408 2.67513,6.15039 5.59691,17.69182 5.53399,21.86043 l -0.0459,3.10016 -1.40533,-2.3223 c -0.77207,-1.27818 -2.06082,-2.32511 -2.86635,-2.32511 -0.8055,0 -1.96845,-0.92879 -2.58289,-2.06488 -0.6144,-1.13621 -1.92778,-2.0677 -2.91965,-2.0677 -2.69238,0 -3.79682,4.50316 -3.16441,12.91255 0.48136,6.40063 0.39667,7.01249 -0.739,5.34414 -1.82079,-2.67507 -6.25943,-1.97826 -6.63166,1.04083 -0.15288,1.23988 1.73713,6.67427 4.19903,12.07598 5.86341,12.86539 6.45176,16.39155 3.36063,20.11733 -1.28194,1.54514 -2.59188,4.31243 -2.90997,6.14992 -0.76984,4.44492 -1.47879,4.75482 -3.94945,1.71793 -2.30171,-2.82923 -4.44612,-3.34616 -4.44612,-1.0716 0,0.81333 1.19358,5.21881 2.65314,9.79005 4.14644,12.98622 23.55217,12.59082 21.83313,21.31842 -0.78788,4.00029 -0.13212,15.63358 -1.11057,18.65315 -1.5403,4.75389 -1.66886,6.51272 -0.94979,13.12523 0.56221,5.17054 0.52617,8.29424 -0.1139,9.67532 -0.51991,1.12185 -1.06724,4.57898 -1.21632,7.6804 -0.2958,6.14406 -1.48823,8.54097 -3.42848,6.89697 -5.52384,-4.6805 -5.91585,-4.87439 -7.25921,-3.58696 -2.33122,2.23414 -1.46788,6.40201 3.11596,15.03342 2.44972,4.61305 5.15402,11.36749 6.00891,15.00825 2.03677,8.67375 2.07629,25.95551 0.0704,30.37743 -2.98499,18.84284 7.78705,71.6952 -4.06603,85.25365 -3.0334,3.46984 -11.46095,7.5976 -7.59714,10.59835 5.87099,4.55959 13.97268,7.43103 7.56297,23.50633 -1.98037,4.96669 -9.83978,3.03885 -10.68786,7.27845 -2.73182,13.65643 3.04333,18.63172 -7.49964,15.95573 z M 147.8104,81.383011 c 0.47144,0.06024 0.85594,1.388215 1.71545,4.71736 2.21884,8.594309 4.6624,25.392249 6.76491,46.496499 4.26972,42.85746 5.65799,50.87079 12.19961,70.419 3.61141,10.79194 3.6919,11.62866 0.7051,7.25233 -4.10373,-6.01287 -5.88524,-3.79254 -2.23397,2.78398 0.77114,1.38904 1.27983,3.3652 1.1291,4.39279 -0.15085,1.02761 1.23367,3.99409 3.07715,6.59198 2.54712,3.58953 3.06766,4.92522 2.17097,5.56514 -0.76394,0.54524 -0.97258,1.7902 -0.59363,3.53386 0.32215,1.48112 0.45162,2.69442 0.28835,2.69442 -0.84844,0 -5.3136,-6.42388 -8.25503,-11.87735 -1.83833,-3.40837 -4.44992,-7.59062 -5.80301,-9.29479 -3.39971,-4.28199 -13.48331,-24.09748 -18.77312,-36.88829 -2.41664,-5.8436 -5.23267,-14.57529 -6.25849,-19.40387 -2.05965,-9.69516 -3.28947,-26.004 -2.30182,-30.54814 l 0.63482,-2.92105 1.8148,4.59985 c 0.99843,2.52908 3.19554,9.01286 4.88227,14.40949 4.41849,14.13687 4.93072,15.4923 5.84904,15.4923 1.04544,0 0.40823,-4.22166 -3.27829,-21.68979 -2.02582,-9.5992 -3.11999,-15.92653 -3.48907,-21.09101 -0.0135,-1.00172 -0.0236,-2.03941 -0.0236,-3.17848 -0.003,-1.74508 0.0202,-2.9521 0.0388,-4.29766 0.14157,-1.73084 0.35563,-3.44846 0.68326,-5.26297 1.21427,-6.724979 4.94023,-16.698745 7.99096,-21.393207 0.46725,-0.719022 0.78322,-1.138569 1.06606,-1.102392 z m 343.80614,0.391722 c 0.98664,0.117104 2.32858,2.992836 4.84109,9.185698 5.71453,14.085279 5.9441,22.577489 1.2018,44.260919 -2.68032,12.2558 -3.9815,23.77771 -2.57319,22.77259 0.52509,-0.37475 2.04914,-4.51069 3.38731,-9.1913 3.30419,-11.55775 7.60053,-22.53747 8.55305,-21.85765 1.2429,0.88703 0.90664,14.93357 -0.57185,23.93374 -1.71551,10.44317 -4.65214,20.40768 -8.8438,30.0109 -4.98536,11.42171 -14.76625,30.27792 -17.51803,33.7686 -1.34343,1.70417 -4.24887,6.3508 -6.45718,10.32724 -2.20823,3.97647 -4.94582,8.15871 -6.08162,9.29483 l -2.06436,2.0677 0.55002,-2.52934 c 0.30254,-1.39062 0.11659,-3.13345 -0.41435,-3.87241 -0.72691,-1.01148 -0.14428,-2.50092 2.35754,-6.0268 2.10161,-2.96168 3.1192,-5.29611 2.76946,-6.34859 -0.30425,-0.91533 0.0337,-2.41098 0.7487,-3.32396 0.71551,-0.913 1.71995,-2.93518 2.23396,-4.49633 1.1808,-3.58642 -0.22243,-3.80218 -3.35336,-0.51482 -2.0553,2.15783 -2.16685,2.17563 -1.53132,0.25726 4.529,-13.67047 7.55053,-23.44518 8.03938,-26.01543 1.07705,-5.66286 4.06287,-30.49224 5.44197,-45.25138 2.03397,-21.76772 4.88309,-42.223489 7.24224,-51.98328 0.72111,-2.983336 1.27517,-4.559524 2.04254,-4.468338 z m 20.64366,65.975887 c 0.0639,-0.0238 0.12267,-0.005 0.17442,0.0531 0.4128,0.47675 0.78535,10.83431 0.82863,23.01601 0.0616,17.32801 -0.22818,23.38417 -1.33506,27.82849 -1.98484,7.96848 -1.89026,11.35972 0.31981,11.35972 2.12534,0 3.35349,-2.42399 4.15538,-8.21483 0.81891,-5.91388 1.86765,-3.54373 2.63859,5.95683 0.61255,7.54829 0.5861,7.68328 -1.9529,10.08108 -1.41568,1.33697 -2.90072,2.45108 -3.3025,2.4706 -0.40179,0.0196 -2.01239,1.16376 -3.5787,2.54335 -3.73766,3.29204 -14.90541,8.20502 -25.97899,11.42968 -9.17078,2.67055 -11.3031,3.03939 -11.3031,1.95575 0,-0.34705 1.55015,-2.78732 3.44542,-5.42245 1.89532,-2.63509 4.41051,-6.45253 5.58978,-8.48341 1.17925,-2.03089 3.89434,-6.67751 6.03318,-10.32727 7.74833,-13.22197 19.87005,-44.98006 22.5529,-59.08729 0.54673,-2.87466 1.26546,-4.99403 1.71307,-5.15943 z m -385.56347,0.28817 c 0.4428,0 1.30186,2.44008 1.90926,5.42244 4.69741,23.0652 20.55105,58.80095 34.59506,77.97915 l 3.97125,5.42242 -2.52715,-0.0894 c -5.30843,-0.18583 -26.39664,-7.44328 -32.15273,-11.06593 -13.42919,-8.45188 -13.26054,-8.20564 -12.44676,-18.23433 0.71427,-8.80148 1.82651,-10.7742 2.70161,-4.79289 0.75365,5.15105 2.43802,7.86181 4.3565,7.01166 1.83103,-0.81137 1.84212,-2.86842 0.0653,-11.71503 -0.77274,-3.84781 -1.477,-10.96361 -1.56523,-15.81409 -0.29479,-16.21956 0.27889,-34.12391 1.09274,-34.12391 z m 366.26214,15.6266 c -0.5265,0.0618 -1.94449,3.97073 -3.10622,8.64569 -0.71626,2.88231 -0.6765,2.9572 0.55243,1.08 1.44222,-2.20305 3.28458,-8.94894 2.64587,-9.68654 -0.027,-0.0312 -0.0569,-0.0434 -0.092,-0.0395 z m -346.27755,2.15443 c -0.0899,0.0118 -0.14292,0.18035 -0.15288,0.51764 -0.0359,1.25889 0.61074,3.92568 1.43681,5.92609 2.16733,5.2482 2.34838,3.88606 0.34893,-2.6189 -0.76037,-2.47294 -1.36298,-3.8566 -1.63308,-3.82483 z m 376.11634,11.35414 c 0.23662,0.0152 0.47584,0.4869 0.9086,1.42695 0.49946,1.08495 2.16294,7.52577 3.69743,14.31429 2.23809,9.90104 2.56661,12.58782 1.65971,13.57576 -0.62173,0.67729 -1.99211,1.52754 -3.04563,1.89141 -1.75444,0.60573 -1.9956,0.11558 -2.87121,-5.82814 -1.63828,-11.12101 -2.20738,-22.09083 -1.24784,-24.07089 0.4283,-0.88388 0.66247,-1.32484 0.89894,-1.30938 z m -406.37672,0.31893 c 1.93884,-0.41511 1.78689,13.88033 -0.88923,28.64264 -0.28329,1.56222 -0.98697,2.80905 -1.5628,2.77005 -1.68865,-0.11288 -4.81342,-2.09572 -5.03008,-3.13933 -0.0101,-0.0663 -0.0202,-0.13465 -0.0304,-0.2069 0.0683,-2.16939 4.62694,-21.8969 5.84178,-25.25436 0.66497,-1.83787 1.22197,-2.71614 1.66941,-2.81193 z m 369.31023,7.75032 c -1.0569,0.0351 -10.12312,16.19371 -10.12312,18.04404 0,4.03231 4.16969,-0.5955 7.43608,-8.25395 2.69735,-6.32294 3.65653,-9.82133 2.68704,-9.79009 z m -332.54667,0.2912 c -1.37527,0.0597 2.96537,11.55421 6.18585,15.95396 2.67243,3.65106 4.08755,4.25952 4.08755,1.75992 0,-1.73303 -8.2832,-16.39877 -9.92202,-17.56839 -0.14461,-0.1031 -0.25962,-0.1495 -0.35138,-0.14562 z m 304.9564,0.45045 c 0.53068,-0.32322 1.67129,2.5966 3.964,9.44032 2.99641,8.94457 2.82001,11.61718 -0.58395,8.86395 -2.33027,-1.88484 -3.7876,-7.40318 -3.79435,-14.36757 -0.003,-2.37977 0.096,-3.74277 0.4143,-3.9367 z m 72.49505,24.53532 c 1.37839,0.11474 1.38781,2.09424 -0.42406,3.78843 -2.05536,1.92193 -4.53937,2.54219 -4.48732,1.122 0.0496,-1.35579 2.15273,-3.97523 3.74348,-4.6642 0.45846,-0.19868 0.84979,-0.27286 1.1679,-0.24632 z m -421.91759,0.5232 c 0.68122,0 1.35767,0.25413 1.94803,0.66312 0.39172,0.33962 0.76952,0.70636 1.117,1.10521 0.4286,0.6156 0.69054,1.3324 0.69054,2.05091 0,1.59308 -1.62389,1.69252 -3.79923,0.22953 -2.04497,-1.37537 -2.01642,-4.04865 0.0435,-4.04865 z m -2.2679,7.19639 c 1.10582,0.0273 2.75745,0.78329 3.68289,1.96417 1.26529,1.61452 1.33904,2.37736 0.44339,4.6474 -1.51185,3.83161 -3.22606,3.37355 -4.31529,-1.15558 -0.39591,-1.64637 -0.67563,-3.0344 -0.81168,-3.88356 0.13685,-0.59715 0.29173,-1.11535 0.46762,-1.50252 0.1576,-0.0452 0.33196,-0.0746 0.53307,-0.0699 z m 425.1377,0.0351 c 1.63186,0 2.0553,0.76871 2.55864,4.64458 0.33164,2.55464 0.35337,5.11015 0.0486,5.67989 -1.06861,1.99664 -3.17445,1.00398 -4.93073,-2.32235 -0.79377,-1.50334 -1.44671,-3.06503 -1.67186,-3.93111 -0.0354,-0.50017 -0.0203,-0.96841 0.0704,-1.39336 0.51413,-1.45014 2.19463,-2.67765 3.92521,-2.67765 z m -11.51879,2.77555 c 0.99444,0.16013 -0.0677,2.54897 -3.019,5.35809 -7.98355,7.5992 -23.10352,14.38062 -35.97855,16.13583 -2.16081,0.29474 -5.6969,1.22895 -7.85766,2.07609 -2.16081,0.84718 -5.61031,1.53891 -7.66625,1.53891 -6.63055,0 -1.99705,-2.9506 8.33985,-5.31055 15.61694,-3.56543 34.77385,-11.68881 43.53575,-18.46374 1.31757,-1.01879 2.19385,-1.40732 2.64586,-1.33463 z m -400.4065,0.62672 c 0.52106,0.0656 1.25152,0.42785 2.14673,1.10521 9.13068,6.90861 25.79533,14.03446 41.20005,17.61595 8.88045,2.06461 13.86418,3.96359 13.86418,5.28256 0,0.99345 -8.65467,0.22759 -12.52186,-1.10798 -2.21371,-0.7645 -7.24651,-2.0659 -11.18196,-2.89308 -3.93545,-0.8272 -10.70037,-3.00068 -15.03449,-4.82931 -6.73733,-2.84246 -15.16404,-8.34203 -18.10923,-11.58634 -0.18998,-0.22914 -0.39159,-0.46399 -0.5597,-0.68553 -0.0135,-0.0152 -0.027,-0.0312 -0.0388,-0.0503 -0.069,-0.0918 -0.1166,-0.17565 -0.18186,-0.26584 -0.10783,-0.17723 -0.19945,-0.34664 -0.2495,-0.49803 -0.49138,-1.47874 -0.20214,-2.19628 0.66634,-2.08729 z m 401.91845,5.89253 c 0.24982,0 1.2838,2.16478 2.29697,4.80971 1.66469,4.34568 1.71249,5.03437 0.50641,7.15994 -3.00158,5.28996 -13.73392,12.02543 -28.20329,17.69993 -5.57868,2.18777 -8.89528,2.71707 -19.69627,3.13928 -11.31615,0.44236 -13.14526,0.2877 -14.21066,-1.19471 -1.04416,-1.45284 -1.00363,-1.9835 0.28599,-3.62897 1.67043,-2.13145 10.56836,-6.02515 21.54495,-9.42913 16.04887,-4.97695 24.40602,-8.80383 31.9274,-14.61932 2.8016,-2.16619 5.29875,-3.93673 5.54857,-3.93673 z m -404.54979,0.0273 5.84417,4.26404 c 7.45341,5.43583 15.03056,8.95421 28.50614,13.23436 21.9526,6.97273 28.10402,10.33871 25.5041,13.95624 -0.90002,1.25233 -3.22339,1.54297 -11.52602,1.44655 -13.17677,-0.15304 -17.93822,-1.0878 -27.70172,-5.44203 -9.97539,-4.44874 -16.11667,-8.04324 -19.70837,-11.5332 -4.43884,-4.31309 -4.80529,-5.80691 -2.74039,-11.1974 l 1.80755,-4.72018 c 0.003,-10e-4 0.0101,-0.008 0.0135,-0.008 z m 69.20704,363.94167 c 0.80682,0.0196 3.62994,0.86495 6.81822,2.06487 26.72092,10.05628 48.81813,13.13772 112.61199,15.70213 29.50168,1.18603 100.72489,-3.63125 115.99927,-7.84537 8.55557,-2.36043 8.44282,-0.48534 -0.17206,2.85952 -10.17166,3.9491 -28.52151,6.73531 -55.92922,8.49178 -17.83565,1.14299 -71.83903,1.11206 -91.30691,-0.0532 -27.51908,-1.64713 -59.23135,-6.88158 -74.13293,-12.23545 -5.57226,-2.00201 -14.96139,-7.95225 -14.1065,-8.93956 0.027,-0.0312 0.10276,-0.0473 0.21804,-0.0447 z m -0.92073,10.31325 c 0.66128,-0.0233 2.67703,0.84741 4.86288,2.12649 15.73996,9.21049 37.38676,14.9173 67.44315,17.78387 3.8293,0.36498 7.1376,0.9913 7.35126,1.39065 0.53864,1.00616 -30.62956,0.91335 -39.23986,-0.11744 -8.31546,-0.99562 -21.42682,-5.17395 -28.12574,-8.96176 -4.87827,-2.75839 -13.42276,-11.07477 -12.48793,-12.15437 0.0359,-0.0415 0.10175,-0.0629 0.19606,-0.0671 z m 247.13726,6.57804 c 0.68898,-0.0152 1.11698,0.0889 1.11698,0.31073 0,0.4444 -0.47597,0.99102 -1.05641,1.21438 -0.61747,0.23773 -0.79886,1.17635 -0.43858,2.26069 0.34949,1.05153 1.16385,1.60963 1.8851,1.28989 3.17309,-1.40605 7.65895,-1.89358 7.65895,-0.83106 0,1.01701 -13.63249,6.31239 -20.12508,7.81746 -2.30176,0.53364 -2.47012,0.43559 -1.18485,-0.68548 0.82406,-0.7187 2.81613,-2.15145 4.42677,-3.184 4.67506,-2.99746 1.5418,-3.91415 -5.37172,-1.57252 -10.22775,3.46435 -18.03304,4.84576 -33.67919,5.968 -18.38504,1.31868 -22.04306,1.70664 -39.76807,4.21376 -7.6249,1.07854 -16.88388,2.09766 -20.57336,2.26356 -7.96631,0.35836 -21.99701,-0.47346 -22.74917,-1.34863 -0.29209,-0.33999 4.60688,-0.92426 10.88636,-1.29543 13.64629,-0.80695 16.43995,-1.4264 16.97044,-3.76892 0.35927,-1.58641 2.59436,-1.84772 21.12577,-2.47333 29.59527,-0.99916 53.11278,-3.94439 78.19142,-9.79003 1.04534,-0.24362 1.99567,-0.37475 2.68464,-0.3888 z m 16.32107,1.42422 c 0.40527,0 0.81195,0.0714 1.1194,0.21545 0.61491,0.28653 0.11052,0.52043 -1.1194,0.52043 -1.22992,0 -1.7319,-0.2338 -1.11699,-0.52043 0.30763,-0.14326 0.7117,-0.21545 1.11699,-0.21545 z"
       id="path883"
       inkscape:connector-curvature="0"
       sodipodi:nodetypes="ccccccccccccccccccccccsccccccsccssccccsccccccsccccscccsssccsscccccccccsscccccsccccccccsssccccscsscsccccccccccccccsccccccccscccccccccssssccccccccccccccsccscccsccccsccccccccccssccccssscccssccccccscccccccsccscccscsccccsscccscsccccccsscccccccccccssssccscscscccscccccccsscccccccccscccccccccccccccccccccccscsssccccssccccccsccccccccccssccccccccccccccsccccccsscccccssccscccccccscccsccccsccccccccsccscccscsccccscsccccscsscccccccscccsscccsccsccscccccccsccccccccccccccccscccscccscccccccccscscsccccssscss"
       inkscape:export-xdpi="25.4"
       inkscape:export-ydpi="25.4" />
  </g>
  <g
     inkscape:groupmode="layer"
     id="layer5"
     inkscape:label="Layer 5"
     style="display:inline">
    <path
       style="fill:#b3b3b3;fill-opacity:1;stroke-width:0.96114349;filter:url(#filter1104)"
       d="m 396.30175,6.9273938 c -0.10512,-0.010124 -0.1849,8.437e-4 -0.23763,0.038303 -0.90797,0.6480002 3.84032,5.6120532 5.36826,5.6120532 0.54389,0 0.98875,0.69717 0.98875,1.549274 0,0.852105 -0.30187,1.547115 -0.67081,1.543217 -0.36894,-0.0034 -5.90316,0.975148 -12.29825,2.176655 -7.73796,1.453803 -12.22582,2.797675 -13.41629,4.018401 -1.56871,1.60862 -4.76059,1.945182 -25.93815,2.729387 -28.75592,1.064831 -36.18537,0.982622 -56.79558,-0.631414 -16.04065,-1.256195 -29.731,-3.059705 -42.63338,-5.614078 -10.64073,-2.106646 -11.13359,-2.357423 -10.48848,-5.325622 0.42162,-1.939884 0.19067,-2.511514 -1.01143,-2.511514 -2.0025,0 -7.23714,3.732662 -8.76252,6.247517 -1.22275,2.015916 -7.39493,5.180559 -35.49026,18.203924 -9.10073,4.218557 -19.9679,9.323421 -24.14931,11.343151 -8.3434,4.030078 -20.56434,11.95386 -22.76225,14.758402 -2.67654,3.415268 -14.6927,37.298593 -22.36223,63.06009 -5.54847,18.63713 -10.53026,37.9657 -17.97221,69.71714 -2.66291,11.36132 -5.48933,22.84688 -6.28015,25.5246 -1.612774,5.46073 -1.09089,10.58375 1.22985,12.0835 2.11676,1.36792 3.43344,0.0332 1.54251,-1.56339 -1.50235,-1.2687 -1.50925,-1.72807 -0.10647,-8.87803 0.81371,-4.14785 1.82347,-8.93696 2.24302,-10.64115 0.41954,-1.70418 1.6655,-7.04917 2.76885,-11.87773 4.52311,-19.79371 5.65422,-23.15944 8.25942,-24.58656 1.35279,-0.74108 2.45964,-2.016 2.45964,-2.83227 0,-0.8163 0.80496,-2.06422 1.78885,-2.77376 1.53913,-1.10989 1.79622,-2.4446 1.83948,-9.5619 0.0643,-10.51102 1.47098,-15.59733 4.22229,-15.25666 1.92755,0.23866 1.98799,-0.0457 1.98799,-9.48727 0,-13.3987 2.18592,-19.21115 4.58563,-12.19041 0.53395,1.5622 1.54426,4.23467 2.2448,5.93886 1.10397,2.68599 1.21228,2.75475 0.8123,0.51642 -1.18289,-6.61966 -1.48876,-18.65911 -0.61666,-24.27187 1.01539,-6.53498 8.69027,-25.331694 10.65091,-26.085424 2.45092,-0.94221 7.09072,19.040842 9.64996,41.557934 0.77343,6.80523 1.53516,12.51869 1.69101,12.69877 0.15591,0.18007 0.55438,-1.43604 0.88568,-3.59276 0.95742,-6.23362 1.43857,-7.53657 2.78457,-7.53657 0.87068,0 0.4406,-1.36339 -1.38356,-4.38959 -1.77986,-2.95267 -2.7247,-5.8987 -2.88765,-8.99907 -0.34967,-6.64836 1.68261,-6.63437 7.80348,0.0504 2.71826,2.96876 5.18245,5.11863 5.47654,4.77893 1.00938,-1.1656 -3.38951,-6.9814 -6.80072,-8.99101 -4.26667,-2.51359 -7.57116,-8.345473 -6.78326,-11.970531 0.3902,-1.79536 0.007,-3.422912 -1.2333,-5.242908 -1.3764,-2.020573 -1.58471,-3.09838 -0.89093,-4.595346 0.61727,-1.333224 0.61034,-1.954749 -0.0203,-1.954749 -1.69788,0 -4.47532,-4.043239 -3.92183,-5.708892 0.31201,-0.939172 -0.2799,-2.632362 -1.40101,-4.010352 -1.70869,-2.100335 -1.80683,-2.719887 -0.82805,-5.200538 0.68049,-1.724727 3.03584,-3.986037 6.07577,-5.833976 2.73025,-1.659679 6.36538,-3.943988 8.07946,-5.07547 1.7141,-1.131482 4.58389,-2.057628 6.37623,-2.057628 3.95038,0 9.33032,-2.448693 10.03428,-4.5671 0.6888,-2.072781 7.76766,-6.007134 14.9081,-8.28498 11.73099,-3.742213 14.9542,-5.12049 24.59655,-10.518078 7.78149,-4.355943 11.13026,-5.652483 16.01219,-6.203122 5.04992,-0.569605 6.35895,-0.403264 7.19551,0.917844 0.70058,1.106374 3.12106,1.796221 7.68992,2.188753 3.66766,0.3151 8.27792,0.824179 10.24563,1.131702 3.03558,0.474387 19.46091,1.095524 53.70529,2.031389 3.95728,0.108161 7.73452,0.582396 8.39393,1.05302 0.65939,0.470624 4.07631,0.767128 7.59205,0.65966 5.80513,-0.177427 6.58855,0.04607 8.53192,2.434856 2.6788,3.292731 3.33448,3.283214 6.03906,-0.08673 2.01831,-2.514804 2.52567,-2.657791 6.81123,-1.92247 2.54658,0.436961 6.23682,0.846469 8.20001,0.909796 2.99429,0.09652 3.57089,-0.215882 3.57764,-1.934569 0.0101,-2.802685 2.09101,-3.041195 8.69788,-0.998551 9.83893,3.041887 9.64471,3.033113 9.64471,0.43573 0,-2.306718 0.11053,-2.328215 8.7206,-1.751 15.72065,1.053897 36.14978,7.125691 65.08466,19.345699 24.8571,10.497847 30.72211,16.317868 31.7379,31.49575 l 0.48387,7.229936 1.5338,-3.963949 c 0.84354,-2.180283 2.00124,-3.784701 2.57322,-3.564533 2.05217,0.789908 8.79442,16.856139 10.2666,24.463527 1.4252,7.36459 1.36084,14.11035 -0.23936,24.89522 -0.71023,4.78681 0.66366,3.17706 2.43349,-2.85041 0.77024,-2.62325 1.80812,-4.9262 2.30593,-5.11784 1.80963,-0.69656 3.00119,5.18323 3.00119,14.80079 -4e-5,9.11407 0.12199,9.78778 1.66305,9.22299 2.92107,-1.07062 3.95639,2.01958 4.40744,13.16274 0.30864,7.62925 0.77838,10.78306 1.69974,11.40366 0.70058,0.47192 1.64383,1.98242 2.0963,3.35675 0.45248,1.37429 1.42697,2.4994 2.16442,2.4994 0.73745,0 2.00858,1.49178 2.82476,3.3144 1.47744,3.29921 6.69382,24.2531 7.01734,28.18741 0.0933,1.13613 0.66167,3.11716 1.26129,4.4017 0.59969,1.28458 1.00117,2.91132 0.89266,3.61497 -0.1085,0.70366 0.4789,3.80355 1.30492,6.88898 0.82609,3.08543 1.50063,6.72695 1.50063,8.09131 -3e-5,3.37536 2.1562,2.42218 2.51904,-1.11353 0.15473,-1.50999 -0.72025,-6.5857 -1.94432,-11.28062 -1.22404,-4.6949 -4.1039,-16.43836 -6.39894,-26.09551 -15.26239,-64.22054 -33.22642,-121.656417 -40.91093,-130.800285 -4.57,-5.4379 -12.48419,-9.721404 -49.41487,-26.741048 C 424.201,24.688248 409.91266,17.512679 408.68284,16.223006 405.06468,12.428772 397.87895,7.0863271 396.30248,6.9273938 Z m -149.5094,0.6112325 c -0.56741,0 -1.13483,0.065807 -1.56522,0.1956841 -0.86092,0.2598042 -0.15659,0.4720414 1.56522,0.4720414 1.7217,0 2.4261,-0.2122372 1.56523,-0.4720414 -0.43044,-0.1299273 -0.99786,-0.1956841 -1.56523,-0.1956841 z M 166.80127,91.267752 c -0.27314,-0.0067 -0.50724,0.02615 -0.68479,0.102929 -0.67054,0.28989 0.16266,1.191148 1.967,2.128228 3.64811,1.894763 4.4721,2.041648 4.4721,0.798851 0,-1.102392 -3.84217,-2.987217 -5.75431,-3.029958 z m 316.55435,18.623508 c -0.87122,0.35361 -3.95575,18.67872 -4.44066,26.62808 -0.29445,4.82856 -0.74724,10.75449 -1.0045,13.16878 -0.25725,2.41427 -0.10107,4.38961 0.3459,4.38961 0.44707,0 1.5053,-7.08791 2.35136,-15.75092 0.84607,-8.663 1.90297,-18.51234 2.34956,-21.88745 0.44518,-3.37512 0.66184,-6.31023 0.47694,-6.52389 -0.0236,-0.0268 -0.0504,-0.0356 -0.0788,-0.0241 z m -315.50619,45.41096 c -0.18425,0.007 -0.55225,0.31061 -1.09533,0.83111 -0.76284,0.73095 -2.28857,0.99691 -3.57769,0.62333 -2.75313,-0.79794 -2.74353,-1.07654 -0.47864,13.97168 1.93756,12.8735 3.70175,20.5052 6.47754,28.01999 0.99666,2.69829 1.88837,4.90603 1.981,4.90603 0.0933,0 0.14394,-3.83445 0.11356,-8.52099 -0.0304,-4.6865 0.25049,-9.48474 0.62539,-10.66333 0.543,-1.70782 0.17984,-2.43285 -1.78884,-3.57059 -4.93954,-2.85462 -5.59991,-4.0644 -5.57963,-10.19733 0.0135,-3.50746 0.71504,-7.54939 1.78885,-10.28206 1.45743,-3.70899 1.93928,-5.13185 1.53379,-5.11784 z m 281.08272,314.73273 c -0.52769,0.77713 11.20538,6.02296 12.43524,10.76774 3.08572,11.90489 1.11977,14.19914 -3.16949,23.77067 -2.5512,5.69344 -10.47053,9.21454 -9.65904,9.51786 1.95899,0.7324 9.65398,5.96461 9.65398,7.66102 -3e-5,2.32392 -3.39839,5.26039 -8.95522,5.92328 l -4.91929,0.58703 4.47207,2.33409 c 5.60515,2.9251 8.17191,5.6705 9.43681,10.09637 1.75979,6.15739 -4.29911,12.40251 -8.52695,12.40251 -3.28627,0 -2.46126,2.09205 1.80977,4.59133 2.44362,1.42985 5.07478,3.64303 5.84692,4.91598 1.90582,3.14195 1.8159,8.68842 -0.16266,10.09054 -1.45203,1.02892 -1.4197,1.22875 0.44722,2.75954 2.28044,1.87009 2.61434,4.69955 0.76338,6.47348 -0.68704,0.65855 -1.05379,2.05755 -0.81581,3.10863 0.23799,1.05116 0.29445,4.99376 -0.23967,5.3756 -0.5348,0.38177 -0.97304,1.82884 -0.97304,3.21547 0,2.11278 0.4347,2.52168 2.68325,2.52168 1.47579,0 2.68326,0.37747 2.68326,0.8392 0,1.88464 -5.31073,6.5166 -10.31725,8.99698 -4.68815,2.32256 -4.92681,2.56757 -1.96877,2.03335 2.68371,-0.48458 3.48725,-0.24162 3.96376,1.19224 1.18364,3.56187 -4.61662,6.77671 -22.97364,12.73316 -10.78492,3.49935 -15.64321,2.39225 -42.33537,4.6229 -47.44856,3.9654 -67.05578,6.07849 -65.29257,7.03832 1.98577,1.08089 38.23168,-0.14292 57.17643,-1.9305 18.60268,-1.75531 41.51924,-3.76812 54.02045,-7.22538 8.44156,-2.33453 12.76033,-4.11845 18.45438,-7.62723 2.77936,-1.71282 5.58667,-3.11467 6.2382,-3.11467 1.7087,0 7.37154,-5.99719 8.91273,-9.43883 1.39821,-3.12234 1.22942,-4.82166 -1.42719,-14.31662 -1.30542,-4.66579 -1.73598,-9.59505 -1.03021,-14.84677 0.59477,-4.42605 0.5381,-8.71742 -0.18525,-13.94343 -0.57465,-4.15216 1.66119,-12.66993 1.30175,-20.62275 -0.53056,-11.73962 1.32386,-17.8012 -0.49659,-23.25173 -2.5838,-7.73621 2.19299,-14.56788 -0.4371,-31.31906 -1.0257,-6.53277 1.99111,-14.13094 1.06407,-16.97117 1.01026,-18.08439 0.97466,-16.90963 -0.76645,-34.03308 -1.20331,-11.83436 -0.14849,-36.22649 0.50761,-49.65501 -2.11164,-9.78478 0.0348,-15.50592 -1.08317,-25.05597 l 0.58155,-4.76643 -0.97984,-17.30091 c 0.85246,-8.59807 0.30189,-17.73064 0.9849,-22.84323 0.68296,-5.11256 -0.29274,-17.32899 0.48207,-23.57774 1.96922,-15.88332 -1.4123,-24.83513 -0.46459,-26.04008 0.44677,-0.56805 0.46202,-1.07873 6.21762,-1.13573 5.75558,-0.0569 8.57956,-1.02661 9.80938,-1.64375 1.8215,-0.91393 0.65632,-1.13307 -6.2854,-1.18615 -6.19168,-0.0476 -9.06503,-0.5061 -10.5094,-1.67436 -3.89888,-3.15353 -2.12153,-6.83972 5.1796,-10.74402 l 4.01266,-2.14638 -5.1936,0.468 c -4.01591,0.36087 -5.30806,0.12166 -5.6984,-1.053 -0.69351,-2.08699 1.99678,-5.26086 5.63377,-6.64695 3.32152,-1.26586 4.28293,-3.638 1.00974,-2.49133 -1.10686,0.38776 -2.40345,0.76672 -2.88243,0.84323 -1.54001,0.24624 -1.16724,-8.98792 0.5206,-12.90049 0.88869,-2.05989 1.43231,-3.95808 1.20885,-4.21613 -0.83703,-0.96658 -1.63916,-11.95232 0.33434,-16.46766 3.37298,-7.71724 7.63335,-24.45398 7.57287,-29.74881 l -0.0568,-4.89296 -2.70249,8.00456 c -2.91353,8.62837 -4.34104,10.09299 -4.34104,4.45619 0,-4.24046 -1.38503,-8.84578 -2.66058,-8.84578 -1.53169,0 -1.1405,12.95835 0.43673,14.46993 0.97159,0.93116 1.08719,1.66524 0.41229,2.6043 -0.57276,0.79691 -0.73009,3.86917 -0.40353,7.86739 0.45044,5.51348 0.24372,7.09572 -1.29445,9.91694 -2.13447,3.91467 -2.79702,4.08608 -4.98747,1.29105 -2.35444,-3.00437 -3.28697,-2.5375 -2.65877,1.3294 0.75526,4.649 6.5806,15.08239 3.72677,20.30284 -1.29337,2.36591 -3.59889,5.61765 -5.1237,7.2259 l -2.77233,2.92303 2.42644,5.53541 c 3.07597,7.01536 8.52815,17.60277 5.56503,28.90343 -1.47849,5.63855 0.66602,10.32773 0.10748,18.69232 -2.52143,37.76552 1.3423,46.16958 -3.09617,36.65235 -1.55199,-3.32795 -7.19826,-7.23706 -7.19826,-5.36067 0,0.47163 3.77312,4.80991 5.73342,9.64058 6.41501,15.80787 2.45413,39.80918 4.77699,49.1425 -4.04961,9.06439 -6.62035,9.07244 -11.16839,0.0152 -4.86335,-9.68435 -0.43963,6.46129 5.6661,16.03438 -2.58629,23.16403 14.01386,68.46626 -8.05806,69.14686 z m 72.69127,-261.71262 c -0.35678,0.0572 -0.24136,1.87446 0.0734,6.69333 0.3744,5.72979 1.23197,9.46511 3.29118,14.34689 1.94188,4.60355 2.612,7.39091 2.21509,9.21693 -0.48913,2.2504 -0.37969,2.43523 0.78262,1.32131 0.74364,-0.71269 1.79246,-2.83422 2.33039,-4.71638 0.86206,-3.01634 0.70534,-3.88619 -1.31893,-7.33079 -1.26311,-2.14937 -2.54276,-5.10454 -2.84396,-6.56624 -0.30119,-1.46165 -0.92533,-3.20904 -1.38531,-3.88529 -0.46006,-0.67618 -0.71295,-2.07053 -0.56252,-3.09853 0.15035,-1.02799 -0.46536,-3.03196 -1.36957,-4.45214 -0.61363,-0.96377 -0.99828,-1.56343 -1.21234,-1.52909 z M 186.40643,430.17875 c 0.76112,-3.43071 1.38356,-8.4372 1.38356,-11.1273 0,-7.30354 -3.03098,-9.42196 -0.11107,-17.90998 3.21584,-9.34848 1.27379,-10.20589 2.38227,-9.01238 0.0251,-5.97119 -1.43763,-4.05896 -4.70161,-1.41733 -2.02383,-2.81101 -0.29755,-2.07436 1.95674,-5.38381 2.30954,-3.39041 2.96532,-7.03223 0.15069,-4.90275 -2.70862,2.04956 -3.27627,1.12946 -2.63439,-4.27861 0.45677,-3.84813 2.83333,-5.3492 1.49695,-5.3492 -1.21805,0 -1.4245,-0.51802 -0.92935,-2.32389 2.13845,-7.79958 1.10256,-12.01074 0.0798,-20.18011 -0.58324,-4.6583 -1.06036,-12.21405 -1.06036,-16.79183 1.63966,-7.31191 1.15909,-15.68393 0.61442,-24.088 -0.34648,-3.73823 -0.90615,-11.02042 -0.68573,-17.20112 0.31033,-8.7013 0.13381,-11.3567 -0.78262,-11.76275 -0.70348,-0.31175 0.62227,-5.50593 0.62227,-7.91527 0,-2.65017 -0.46443,-4.25899 -1.34164,-4.64781 -0.99088,-0.43909 -1.34161,-2.25186 -1.34161,-6.93338 0,-5.22698 4.31251,-8.95421 2.49798,-11.44445 -3.28185,-4.50385 -3.66239,-8.96709 -1.47265,-17.2921 2.12937,-8.09547 2.17007,-8.38987 1.13376,-8.38987 -0.41297,0 -1.20931,1.16198 -1.76963,2.58213 -0.56038,1.42019 1.57976,3.00057 0.66431,3.00057 -2.0846,0 -3.72596,-3.85939 -5.04685,-11.8737 -0.7177,-4.35435 -1.46381,-6.29208 -2.51554,-6.5259 -0.16334,-0.0363 -0.30965,-0.0543 -0.43845,-0.0444 l -1.4e-4,3.3e-4 c -0.90208,0.07 -0.99487,1.49089 -0.78962,7.27026 0.14765,4.15712 0.88238,8.9531 1.63164,10.65729 1.48004,3.36672 1.67621,12.48099 0.26367,12.25497 -0.47902,-0.0766 -1.77729,-0.45761 -2.88412,-0.84524 -2.90489,-1.01761 -2.49247,1.10311 0.4472,2.29969 3.80713,1.54964 6.86241,4.8391 6.2382,6.71755 -0.43757,1.31673 -1.57276,1.55121 -5.7386,1.18817 l -5.19529,-0.45187 4.02486,2.19076 c 7.4998,4.0836 9.12062,7.64646 4.9228,10.8227 -1.6609,1.25666 -4.35419,1.68993 -10.50941,1.69049 -7.19463,4.4e-4 -7.80934,0.13178 -4.6992,0.99853 1.96771,0.54843 7.70888,0.80304 12.75769,0.56686 5.98246,-0.27967 4.7346,2.0489 5.20767,2.78024 0.3992,0.6172 -0.41172,8.87507 0.4049,14.2717 1.42738,9.43264 -0.98655,11.95926 1.80502,35.93069 0.69462,5.96468 -1.21454,14.05087 -0.71054,17.45924 0.50398,3.40842 1.14524,10.38013 1.42547,15.49266 0.42679,7.78759 1.65194,8.61602 0.0933,13.72686 -2.72934,8.94928 -0.24307,10.2115 -1.71969,26.17927 3.58696,9.82815 0.1382,14.91773 0.0903,24.78715 -0.49636,16.76946 2.75852,24.50189 0.23832,53.67747 -2.4141,8.98641 0.79079,26.4475 0.055,31.6628 -1.63552,11.5914 0.93355,11.37749 0.2133,25.78983 0.60676,16.20733 0.73755,10.59961 0.56178,24.29253 -0.1058,8.23687 0.80388,12.84529 0.25556,14.82981 -0.54819,1.98451 -0.99215,8.95623 -0.98876,15.49269 0.007,7.92167 1.29661,15.88044 0.26401,20.53258 -1.47547,6.64884 -1.47372,7.13789 0.0351,10.32848 1.5171,3.20823 6.9806,8.11333 12.67908,11.38343 8.43784,4.84224 20.2507,4.85881 45.30424,9.56948 9.64829,1.81419 20.22751,-0.0196 40.53884,0.74699 h 0.002 c 10.57651,0.39981 20.716,0.80987 22.53166,0.90983 1.81572,0.1004 3.5498,-0.28341 3.85371,-0.85129 0.35907,-0.67093 -4.24454,-1.04563 -13.13854,-1.06514 -13.13522,-0.0312 -26.59806,1.48551 -51.03764,-0.9296 -24.74628,-2.44539 -29.4471,-2.73669 -46.7106,-12.80008 -5.94133,-3.46332 -6.70775,-4.63432 -7.61481,-11.61947 -0.58915,-4.53762 -0.49582,-4.90603 1.25253,-4.90603 2.72512,0 0.51912,-4.26877 -2.59974,-6.83323 -2.88434,-2.37172 -3.0686,-2.86218 -1.88841,-5.01301 0.60027,-1.0937 1.18384,-1.14044 2.68326,-0.21394 1.56397,0.96666 2.01736,0.87907 2.46835,-0.4781 0.36783,-1.10679 -0.45944,-2.6386 -2.4736,-4.58115 -2.75775,-2.6598 -3.01975,-3.39686 -2.95755,-8.34758 0.0758,-6.03194 2.26625,-9.25316 6.2924,-9.25316 2.70784,0 2.68799,-0.72248 -0.0997,-3.70575 -4.20254,-4.49753 -8.13478,-17.72883 -1.6304,-21.36486 4.4123,-2.46654 12.69445,2.90243 22.38199,4.99863 8.93129,1.9326 14.03396,1.51936 6.08097,-0.4922 -13.58588,-3.43633 -18.22802,-6.67934 -22.83386,-15.95262 -3.51537,-7.07803 -13.0229,-10.14026 -9.69519,-13.163 1.29619,-1.17738 2.90611,-2.14027 3.57768,-2.14027 1.82325,0 1.51388,-0.76089 -1.6316,-4.00641 l -2.85272,-2.94321 1.12502,-5.7996 c -3.60346,-16.65474 1.13168,-43.80856 0.54096,-72.52991 z M 116.42035,212.35286 c -0.0781,0.0101 -0.15794,0.0408 -0.23934,0.0989 -0.47752,0.3408 -0.86821,1.52829 -0.86821,2.63861 0,1.11032 -0.37808,2.82624 -0.84028,3.81264 -0.46222,0.98642 -1.06434,3.03666 -1.33986,4.55502 -0.27551,1.51841 -1.53034,4.17079 -2.78633,5.89448 -2.13629,2.93182 -2.21164,3.40658 -1.18617,7.35904 0.62303,2.40131 2.39439,5.54147 4.10349,7.2743 2.93862,2.97949 4.73242,3.83707 4.73242,2.2634 0,-0.43144 -0.79081,-1.35526 -1.75915,-2.05359 -0.9684,-0.69837 -2.403,-2.70502 -3.18813,-4.45818 -1.34415,-3.00166 -1.3103,-3.51306 0.58347,-8.78931 1.1061,-3.0817 2.3852,-5.60398 2.84398,-5.60398 0.45872,0 0.61276,-0.98311 0.34064,-2.18471 -0.27214,-1.20159 -0.0592,-2.99113 0.47339,-3.97606 1.04526,-1.93268 0.29953,-6.97314 -0.86992,-6.83049 z m 39.81733,2.14637 1.99675,4.64781 c 1.09841,2.55629 3.03485,5.92593 4.30264,7.48813 1.26773,1.56219 2.455,2.84033 2.63956,2.84033 0.85474,0 -4.73293,-10.48978 -6.71162,-12.59992 z m 328.60379,1.01937 c -0.89178,0.15575 -4.43454,5.74988 -6.28015,10.02385 l -1.56171,3.61497 2.43691,-2.58213 c 2.51511,-2.66498 6.28817,-10.15582 5.54645,-11.01231 -0.0344,-0.04 -0.0822,-0.0547 -0.14157,-0.0444 z m -357.33872,36.9781 c -0.12976,-0.0199 -0.20891,-0.0169 -0.23393,0.0118 -0.53902,0.62249 9.95375,5.89843 14.74917,7.41551 v -0.002 c 5.06214,1.60149 7.85374,1.82039 4.15241,0.32479 -1.47582,-0.59628 -6.25037,-2.67644 -10.61075,-4.62159 -3.81531,-1.70204 -7.14884,-2.98863 -8.05673,-3.1288 z"
       id="path877-5"
       inkscape:connector-curvature="0"
       sodipodi:nodetypes="ccsscscssscscsccccccccsccscccsccssssccsccccccccscccccsccsscscsccccsscsssscccccccccscccsccccccccccscccscscscccscccccsscccccccccscccccccccccccccscccccccssscccccccscsccccccscscccccccccccccccccccsccccssccccccccccccccccccccccccccccccccccccccccsscccccccscsscsccccsccccccccccccccccccccccccscccccccccccccsccccccsccccccsccccccscccccscccsccccccsccccccsccccccccccc"
       inkscape:export-xdpi="25.4"
       inkscape:export-ydpi="25.4" />
    <rect
       style="display:inline;opacity:0.51999996;fill:#e4e4e4;fill-opacity:0;fill-rule:evenodd;stroke:#34ff9c;stroke-width:0;stroke-linecap:butt;stroke-linejoin:miter;stroke-miterlimit:12.69999981;stroke-dasharray:none;stroke-opacity:0.98989898;filter:url(#filter1104)"
       id="rect1102"
       width="637.94031"
       height="637.94031"
       x="0.72325939"
       y="3.010236"
       inkscape:export-xdpi="25.4"
       inkscape:export-ydpi="25.4" />
  </g>
</svg>
